,Date,Day_Night,Meet_Type,Pred_Turnover,Tab_Status,Title,Venue,Flag
0,2017-01-20 00:00:00,Y,Country,13821301.338594865,Y,Camperdown Cup,Camperdown,1.0
1,2017-01-26 00:00:00,N,Metro,13862759.80922778,Y,NM-Australia Stakes,Moonee Valley,1.0
2,2017-01-26 00:00:00,Y,Country,13809203.881464582,N,Hanging Rock Cup,Hanging Rock,1.0
3,2017-01-27 00:00:00,Y,Metro,13939359.233458769,Y,Australia Day - Caulfield,Caulfield,1.0
4,2017-01-28 00:00:00,Y,Country,13812308.710828692,Y,Great Western Cup,Great Western,1.0
5,2017-02-03 00:00:00,Y,Metro,13943022.794454701,Y,WJ Adams Stks - Caulfield,Caulfield,1.0
6,2017-02-10 00:00:00,Y,Metro,13943022.794454701,Y,Orr Stakes - Caulfield,Caulfield,1.0
7,2017-02-11 00:00:00,Y,Country,13807993.391268611,Y,Colac Cup,Colac,1.0
8,2017-02-17 00:00:00,Y,Metro,13982656.242566466,Y,Lightning Stks,Flemington,1.0
9,2017-02-24 00:00:00,Y,Metro,13943022.794454701,Y,Blue Diamond Stks - Caulfield,Caulfield,1.0
10,2017-03-03 00:00:00,Y,Metro,13961845.850068629,Y,Australian Guineas ,Flemington,1.0
11,2017-03-04 00:00:00,Y,Country,13815302.020976324,Y,Wangaratta Cup,Wangaratta,1.0
12,2017-03-10 00:00:00,Y,Country,13815842.303822227,N,Towong Cup,Towong,1.0
13,2017-03-10 00:00:00,Y,Country,13809696.645602442,Y,Edenhope Cup,Edenhope,1.0
14,2017-03-10 00:00:00,Y,Metro,13961845.850068629,Y,Aust Cup/Newmarket,Flemington,1.0
15,2017-03-11 00:00:00,Y,Country,13812392.644996561,Y,Stony Creek Cup,Stony Creek,1.0
16,2017-03-16 00:00:00,N,Metro,13857236.304249406,Y,NM - Alister Clark Stks,Moonee Valley,1.0
17,2017-03-18 00:00:00,Y,Country,13819494.058193155,Y,Yarra Valley Cup,Yarra Valley,1.0
18,2017-03-23 00:00:00,N,Metro,13857236.304249406,Y,NM- William Reid Stks,Moonee Valley,1.0
19,2017-03-24 00:00:00,Y,Metro,13843672.145316988,Y,Mornington Cup ,Mornington,1.0
20,2017-03-25 00:00:00,Y,Country,13817201.205573179,Y,Echuca Cup,Echuca,1.0
21,2017-03-31 00:00:00,Y,Country,13812412.495672006,Y,Wbeal Cup,Warracknabeal,1.0
22,2017-03-31 00:00:00,Y,Metro,13926783.958958749,Y,Easter Cup- Caulfield,Caulfield,1.0
23,2017-03-31 00:00:00,Y,Country,13822451.642473426,N,Kerang Cup,Kerang,1.0
24,2017-04-01 00:00:00,Y,Country,13813795.257104188,Y,Stawell Cup,Stawell,1.0
25,2017-04-07 00:00:00,Y,Metro,13853302.26990417,Y,Golden Mile Day,Bendigo,1.0
26,2017-04-15 00:00:00,Y,Country,13818784.483999468,Y,Terang Cup,Terang,1.0
27,2017-04-25 00:00:00,Y,Metro,13953869.11179291,Y,VRC St Leger,Flemington,1.0
28,2017-05-01 00:00:00,Y,Country,13824634.213065032,Y,1st Day ,Warrnambool,1.0
29,2017-05-02 00:00:00,Y,Country,13824634.213065032,Y,2nd Day- Wangoom,Warrnambool,1.0
30,2017-05-03 00:00:00,Y,Country,13824634.213065032,Y,3rd Day- Grand Annual - W/bool Cup,Warrnambool,1.0
31,2017-05-19 00:00:00,Y,Metro,13962783.791522965,Y,Andrew Ramsden Stks,Flemington,1.0
32,2017-05-20 00:00:00,Y,Country,13811941.879480172,Y,Casterton Cup,Casterton,1.0
33,2017-05-26 00:00:00,Y,Metro,13842554.557485018,Y,Aust Hurdle & Steeple- Sandown,Sandown,1.0
34,2017-06-08 00:00:00,Y,Country,13815295.644115478,Y,1st Day - Golden Topaz Hcp,Swan Hill,1.0
35,2017-06-10 00:00:00,Y,Country,13815295.644115478,Y,3rd Day - Swan Hill Cup,Swan Hill,1.0
36,2017-07-07 00:00:00,Y,Metro,13920213.388891637,Y,Winter Championship / Finals Day,Flemington,1.0
37,2017-07-08 00:00:00,Y,Country,13818695.85499845,Y,Kevin Lafferty Hurdle & Thackeray Steeplechase,Warrnambool,1.0
38,2017-07-14 00:00:00,Y,Metro,13894297.176769752,Y,Monash Stks - Caulfield,Caulfield,1.0
39,2017-07-22 00:00:00,Y,Country,13819393.250085887,Y,Mosstrooper Steeplechase,Bendigo,1.0
40,2017-07-27 00:00:00,Y,Country,13817444.248306252,Y,Mildura Cup Carnival Day 1- Mildura Cup,Mildura,1.0
41,2017-07-28 00:00:00,Y,Country,13817444.248306252,Y,Mildura Cup Carnival Day 2 ,Mildura,1.0
42,2017-07-28 00:00:00,Y,Metro,13894297.176769752,Y,Bletchingly Stks - Caulfield,Caulfield,1.0
43,2017-08-06 00:00:00,Y,Metro,13829745.25582333,Y,Sandown- Grand National Hurdle,Sandown,1.0
44,2017-08-12 00:00:00,Y,Metro,13911774.51356966,Y,Aurie's Star,Flemington,1.0
45,2017-08-19 00:00:00,Y,Metro,13887670.400457203,Y,P.B. Lawrence Stks - Caulfield,Caulfield,1.0
46,2017-08-20 00:00:00,Y,Country,13817193.90160247,Y,Grand National Steeplechase,Sportsbet-Ballarat,1.0
47,2017-08-26 00:00:00,Y,Metro,13839964.31001972,Y,Mitchell McKenzie Stks,Moonee Valley,1.0
48,2017-09-02 00:00:00,Y,Metro,13931051.539776284,Y,Memsie Stks - Caulfield,Caulfield,1.0
49,2017-09-09 00:00:00,Y,Metro,13859120.807579685,Y,Dato' Tan Chin Nam Stks,Moonee Valley,1.0
50,2017-09-16 00:00:00,Y,Metro,13967395.463355616,Y,Makybe Diva Stks,Flemington,1.0
51,2017-09-23 00:00:00,Y,Metro,13931051.539776284,Y,Naturalism Stks-Caulfield,Caulfield,1.0
52,2017-09-23 00:00:00,Y,Country,13814900.114727527,Y,Tatura Cup,Tatura,1.0
53,2017-09-24 00:00:00,Y,Country,13821762.91924918,Y,Coleraine Cup,Coleraine,1.0
54,2017-09-29 00:00:00,N,Metro,13859120.807579685,Y,NM- Moir Stks,Moonee Valley,1.0
55,2017-09-29 00:00:00,Y,Country,13810526.167432811,Y,Benalla Cup,Benalla,1.0
56,2017-10-01 00:00:00,Y,Metro,13955207.671862692,Y,Underwood Stks- Caulfield,Caulfield,1.0
57,2017-10-07 00:00:00,Y,Metro,13998367.148998044,Y,Turnbull Stks ,Flemington,1.0
58,2017-10-07 00:00:00,Y,Country,13810409.647068605,N,Gunbower Cup,Gunbower,1.0
59,2017-10-07 00:00:00,Y,Country,13825031.358858753,Y,Murtoa Cup,Murtoa,1.0
60,2017-10-08 00:00:00,Y,Country,13814564.620222542,Y,Bairnsdale Cup,Bairnsdale,1.0
61,2017-10-13 00:00:00,N,Country,13841256.981737833,Y,NM - Pinker Pinker Plate,Cranbourne,1.0
62,2017-10-14 00:00:00,Y,Metro,13955207.671862692,Y,Caulfield Guineas,Caulfield,1.0
63,2017-10-14 00:00:00,Y,Country,13819671.899952173,N,Manangatang Cup,Manangatang,1.0
64,2017-10-15 00:00:00,Y,Country,13841256.981737833,Y,Cranbourne Cup,Cranbourne,1.0
65,2017-10-18 00:00:00,Y,Metro,13955207.671862692,Y,Blue Sapphire- Caulfied,Caulfield,1.0
66,2017-10-19 00:00:00,Y,Country,13815302.020976324,Y,Moe Cup,Moe,1.0
67,2017-10-21 00:00:00,Y,Country,13833438.121402089,N,Avoca Cup,Avoca,1.0
68,2017-10-21 00:00:00,Y,Metro,13955207.671862692,Y,Caulfield Cup,Caulfield,1.0
69,2017-10-22 00:00:00,Y,Country,13824030.140974954,Y,Seymour Cup,Seymour,1.0
70,2017-10-25 00:00:00,Y,Country,13839306.964554943,Y,Geelong Cup,bet365 Geelong,1.0
71,2017-10-27 00:00:00,N,Metro,13869787.813855566,Y,NM- Manikato Stks,Moonee Valley,1.0
72,2017-10-28 00:00:00,Y,Metro,13869787.813855566,Y,Cox Plate,Moonee Valley,1.0
73,2017-10-28 00:00:00,Y,Country,13821162.232058153,N,St Arnaud Cup,St Arnaud,1.0
74,2017-10-29 00:00:00,Y,Country,13814173.740717608,Y,Hamilton Cup,Hamilton,1.0
75,2017-10-29 00:00:00,Y,Country,13829279.172561578,Y,Sale Cup,Sale,1.0
76,2017-11-01 00:00:00,Y,Country,13837420.030973215,Y,Bendigo Cup,Bendigo,1.0
77,2017-11-03 00:00:00,Y,Country,13818197.321690876,Y,Horsham Cup,Horsham,1.0
78,2017-11-04 00:00:00,Y,Country,13817348.036434863,N,Mortlake Cup,Mortlake,1.0
79,2017-11-04 00:00:00,Y,Country,13827678.12965319,N,Wyche Cup,Wycheproof,1.0
80,2017-11-04 00:00:00,Y,Metro,14044188.538049344,Y,Derby Day,Flemington,1.0
81,2017-11-07 00:00:00,Y,Metro,14044188.538049344,Y,Melbourne Cup Day,Flemington,1.0
82,2017-11-08 00:00:00,Y,Country,13819697.455108132,Y,Kyneton Cup,bet365 Park Kyneton,1.0
83,2017-11-09 00:00:00,Y,Metro,14044188.538049344,Y,VRC Oaks,Flemington,1.0
84,2017-11-11 00:00:00,Y,Metro,14044188.538049344,Y,Stakes Day,Flemington,1.0
85,2017-11-12 00:00:00,Y,Country,13826560.644877322,Y,Ararat Cup,Ararat,1.0
86,2017-11-18 00:00:00,Y,Country,13842732.115224514,Y,Dunkeld Cup,Dunkeld,1.0
87,2017-11-18 00:00:00,Y,Metro,13862996.68089449,Y,Zipping Classic,Sandown,1.0
88,2017-11-19 00:00:00,Y,Country,13831178.130475562,Y,Donald Cup,Donald,1.0
89,2017-11-24 00:00:00,Y,Country,13824394.92724334,Y,Wodonga Cup,Wodonga,1.0
90,2017-11-25 00:00:00,Y,Metro,13878744.465798263,Y,Ballarat Cup,Sportsbet-Ballarat,1.0
91,2017-11-26 00:00:00,Y,Country,13816635.040884696,Y,Kilmore Cup,bet365 Park Kilmore,1.0
92,2017-12-03 00:00:00,Y,Country,13817048.568637904,Y,Traralgon Cup,Traralgon,1.0
93,2017-12-09 00:00:00,Y,Metro,13935921.49344112,Y,Pakenham Cup,Racing.com Park,1.0
94,2017-12-10 00:00:00,Y,Country,13823955.786751393,Y,Werribee Cup,Werribee,1.0
95,2017-12-26 00:00:00,Y,Country,13817706.336403873,N,Nhill Cup,Nhill,1.0
96,2017-12-26 00:00:00,Y,Country,13823267.086869564,N,Penshurst Cup,Penshurst,1.0
0,2017-01-24,D,Metro,33652167.013597354,Y,Flemington-Metro-TS-Y-DN-D,Flemington,0.0
1,2017-01-19,D,Metro,29284040.30339053,Y,Caulfield-Metro-TS-Y-DN-D,Caulfield,0.0
2,2017-01-01,D,Metro,28296419.96330815,Y,Racing.com Park-Metro-TS-Y-DN-D,Racing.com Park,0.0
3,2017-01-17,D,Country,24531406.919435803,Y,Racing.com Park Synthetic-Country-TS-Y-DN-D,Racing.com Park Synthetic,0.0
4,2017-01-21,D,Country,24531406.919435803,Y,Racing.com Park Synthetic-Country-TS-Y-DN-D,Racing.com Park Synthetic,0.0
5,2017-01-07,D,Country,24531406.919435803,Y,Racing.com Park Synthetic-Country-TS-Y-DN-D,Racing.com Park Synthetic,0.0
6,2017-01-14,N,Country,23759071.265956737,Y,Racing.com Park Synthetic-Country-TS-Y-DN-N,Racing.com Park Synthetic,0.0
7,2017-01-15,D,Metro,22943604.356540244,Y,Cranbourne-Metro-TS-Y-DN-D,Cranbourne,0.0
8,2017-01-16,D,Country,20060507.24045518,Y,Racing.com Park-Country-TS-Y-DN-D,Racing.com Park,0.0
9,2017-01-13,N,Metro,20143559.970032327,Y,Moonee Valley-Metro-TS-Y-DN-N,Moonee Valley,0.0
10,2017-01-11,D,Country,20060507.24045518,Y,Racing.com Park-Country-TS-Y-DN-D,Racing.com Park,0.0
11,2017-01-28,D,Country,17749279.311885983,Y,Cranbourne-Country-TS-Y-DN-D,Cranbourne,0.0
12,2017-01-10,D,Country,17691882.75017928,Y,bet365 Geelong Synthetic-Country-TS-Y-DN-D,bet365 Geelong Synthetic,0.0
13,2017-01-12,D,Country,17553847.79584062,Y,bet365 Geelong-Country-TS-Y-DN-D,bet365 Geelong,0.0
14,2017-01-05,D,Country,17122735.92669521,Y,Dunkeld-Country-TS-Y-DN-D,Dunkeld,0.0
15,2017-01-06,D,Country,16958326.724743612,Y,Avoca-Country-TS-Y-DN-D,Avoca,0.0
16,2017-01-28,D,Country,16360613.927175086,Y,Mildura-Country-TS-Y-DN-D,Mildura,0.0
17,2017-01-20,D,Country,16314808.304169413,Y,Kerang-Country-TS-Y-DN-D,Kerang,0.0
18,2017-01-22,D,Ballarat,16512349.610893559,TS,Sportsbet-Ballarat-Country-TS-Y-DN-D,Sportsbet-Ballarat,0.0
19,2017-01-01,D,Country,16175291.143802341,Y,Donald-Country-TS-Y-DN-D,Donald,0.0
20,2017-01-26,D,Country,16156823.905673184,Y,Werribee-Country-TS-Y-DN-D,Werribee,0.0
21,2017-01-31,D,Country,16148789.746193707,Y,Coleraine-Country-TS-Y-DN-D,Coleraine,0.0
22,2017-01-08,D,Country,16068833.56607338,Y,Ladbrokes Park Hillside-Country-TS-Y-DN-D,Ladbrokes Park Hillside,0.0
23,2017-01-23,D,Country,16109028.287245844,Y,Murtoa-Country-TS-Y-DN-D,Murtoa,0.0
24,2017-01-01,D,Country,16007696.045262475,Y,Seymour-Country-TS-Y-DN-D,Seymour,0.0
25,2017-01-27,D,Country,15967151.78561762,Y,Terang-Country-TS-Y-DN-D,Terang,0.0
26,2017-01-25,D,Country,15954503.840601511,Y,Camperdown-Country-TS-Y-DN-D,Camperdown,0.0
27,2017-01-04,D,Country,16027165.37814933,Y,Mornington-Country-TS-Y-DN-D,Mornington,0.0
28,2017-01-10,D,Country,16082153.37826331,Y,Penshurst-Country-TS-Y-DN-D,Penshurst,0.0
29,2017-01-02,D,Country,15935670.336248133,Y,Ladbrokes Park Lakeside-Country-TS-Y-DN-D,Ladbrokes Park Lakeside,0.0
30,2017-01-30,D,Country,15946112.955268499,Y,Yarra Valley-Country-TS-Y-DN-D,Yarra Valley,0.0
31,2017-01-21,D,Country,13849811.967940409,N,Burrumbeet-Country-TS-N-DN-D,Burrumbeet,0.0
32,2017-01-29,D,Country,13833929.435739033,N,Dunkeld-Country-TS-N-DN-D,Dunkeld,0.0
33,2017-01-09,D,Country,13832360.33451723,N,Avoca-Country-TS-N-DN-D,Avoca,0.0
34,2017-01-22,D,Country,13827283.732833948,N,Balnarring-Country-TS-N-DN-D,Balnarring,0.0
35,2017-01-18,D,Country,13826655.837020624,N,Mildura-Country-TS-N-DN-D,Mildura,0.0
36,2017-01-09,D,Country,13824254.734586485,N,Murtoa-Country-TS-N-DN-D,Murtoa,0.0
37,2017-01-16,D,Country,13826218.673782978,N,Kerang-Country-TS-N-DN-D,Kerang,0.0
38,2017-01-03,D,Country,13823998.243757382,N,Penshurst-Country-TS-N-DN-D,Penshurst,0.0
39,2017-01-23,D,Country,13822900.682687882,N,Terang-Country-TS-N-DN-D,Terang,0.0
40,2017-01-01,D,Country,13822779.972254753,N,Camperdown-Country-TS-N-DN-D,Camperdown,0.0
41,2017-01-30,D,Country,13824634.213065032,N,Coleraine-Country-TS-N-DN-D,Coleraine,0.0
42,2017-02-01,D,Metro,34172566.07539473,Y,Flemington-Metro-TS-Y-DN-D,Flemington,0.0
43,2017-02-21,D,Metro,29697681.169469006,Y,Caulfield-Metro-TS-Y-DN-D,Caulfield,0.0
44,2017-02-11,D,Metro,28683673.71038257,Y,Racing.com Park-Metro-TS-Y-DN-D,Racing.com Park,0.0
45,2017-02-22,D,Country,24818067.510204602,Y,Avoca-Country-TS-Y-DN-D,Avoca,0.0
46,2017-02-18,D,Metro,23187842.233355436,Y,Cranbourne-Metro-TS-Y-DN-D,Cranbourne,0.0
47,2017-02-25,N,Metro,20312986.604667876,Y,Moonee Valley-Metro-TS-Y-DN-N,Moonee Valley,0.0
48,2017-02-20,D,Country,17795805.77382762,Y,Seymour-Country-TS-Y-DN-D,Seymour,0.0
49,2017-02-09,D,Country,17854735.849823885,Y,Mildura-Country-TS-Y-DN-D,Mildura,0.0
50,2017-02-10,D,Country,17654082.818524387,Y,Mornington-Country-TS-Y-DN-D,Mornington,0.0
51,2017-02-13,D,Country,17211452.55538331,Y,Ladbrokes Park Hillside-Country-TS-Y-DN-D,Ladbrokes Park Hillside,0.0
52,2017-02-05,D,Country,17042650.688557174,Y,Penshurst-Country-TS-Y-DN-D,Penshurst,0.0
53,2017-02-04,D,Country,16764215.069723569,Y,Murtoa-Country-TS-Y-DN-D,Murtoa,0.0
54,2017-02-24,D,Country,16610692.513731234,Y,Werribee-Country-TS-Y-DN-D,Werribee,0.0
55,2017-02-20,D,Country,16583399.692725062,Y,Donald-Country-TS-Y-DN-D,Donald,0.0
56,2017-02-12,D,Country,16643797.674791388,Y,Coleraine-Country-TS-Y-DN-D,Coleraine,0.0
57,2017-02-19,D,Country,16427686.004276354,Y,Kerang-Country-TS-Y-DN-D,Kerang,0.0
58,2017-02-03,D,Country,16381938.82182169,Y,Camperdown-Country-TS-Y-DN-D,Camperdown,0.0
59,2017-02-27,D,Ballarat,16238694.059091337,TS,Sportsbet-Ballarat-Country-TS-Y-DN-D,Sportsbet-Ballarat,0.0
60,2017-02-16,D,Country,16211484.60039476,Y,Warrnambool-Country-TS-Y-DN-D,Warrnambool,0.0
61,2017-02-15,D,Country,16085495.543837227,Y,Cranbourne-Country-TS-Y-DN-D,Cranbourne,0.0
62,2017-02-07,D,Country,16169504.626013372,Y,Dunkeld-Country-TS-Y-DN-D,Dunkeld,0.0
63,2017-02-08,D,Country,16066621.175282992,Y,Racing.com Park-Country-TS-Y-DN-D,Racing.com Park,0.0
64,2017-02-23,D,Country,16024993.659086239,Y,Terang-Country-TS-Y-DN-D,Terang,0.0
65,2017-02-13,D,Country,16219733.41556092,Y,Sale-Country-TS-Y-DN-D,Sale,0.0
66,2017-02-14,D,Country,16128256.132998742,Y,bet365 Geelong Synthetic-Country-TS-Y-DN-D,bet365 Geelong Synthetic,0.0
67,2017-02-26,D,Country,16010929.062554434,Y,Racing.com Park Synthetic-Country-TS-Y-DN-D,Racing.com Park Synthetic,0.0
68,2017-02-06,D,Country,16010929.062554434,Y,Racing.com Park Synthetic-Country-TS-Y-DN-D,Racing.com Park Synthetic,0.0
69,2017-02-17,D,Country,16143067.85016641,Y,bet365 Geelong-Country-TS-Y-DN-D,bet365 Geelong,0.0
70,2017-02-28,D,Country,16010929.062554434,Y,Racing.com Park Synthetic-Country-TS-Y-DN-D,Racing.com Park Synthetic,0.0
71,2017-02-26,D,Country,13851083.01608922,N,Burrumbeet-Country-TS-N-DN-D,Burrumbeet,0.0
72,2017-02-28,D,Country,13834776.136342261,N,Dunkeld-Country-TS-N-DN-D,Dunkeld,0.0
73,2017-02-02,D,Country,13827952.874362797,N,Balnarring-Country-TS-N-DN-D,Balnarring,0.0
74,2017-02-06,D,Country,13833165.112066641,N,Avoca-Country-TS-N-DN-D,Avoca,0.0
75,2017-03-24,D,Metro,31822931.720786873,Y,Flemington-Metro-TS-Y-DN-D,Flemington,0.0
76,2017-03-24,D,Metro,27864206.583918642,Y,Caulfield-Metro-TS-Y-DN-D,Caulfield,0.0
77,2017-03-01,D,Metro,26967160.760026786,Y,Racing.com Park-Metro-TS-Y-DN-D,Racing.com Park,0.0
78,2017-03-10,D,Country,23552196.06799942,Y,Racing.com Park Synthetic-Country-TS-Y-DN-D,Racing.com Park Synthetic,0.0
79,2017-03-29,D,Country,23552196.06799942,Y,Racing.com Park Synthetic-Country-TS-Y-DN-D,Racing.com Park Synthetic,0.0
80,2017-03-27,N,Country,22850348.588441804,Y,Racing.com Park Synthetic-Country-TS-Y-DN-N,Racing.com Park Synthetic,0.0
81,2017-03-15,D,Metro,22109306.280659605,Y,Cranbourne-Metro-TS-Y-DN-D,Cranbourne,0.0
82,2017-03-13,D,Metro,21988507.640805513,Y,bet365 Geelong Synthetic-Metro-TS-Y-DN-D,bet365 Geelong Synthetic,0.0
83,2017-03-17,D,Metro,21694140.451801475,Y,bet365 Geelong-Metro-TS-Y-DN-D,bet365 Geelong,0.0
84,2017-03-16,D,Metro,20011805.010789577,Y,Moonee Valley-Metro-TS-Y-DN-D,Moonee Valley,0.0
85,2017-03-28,N,Metro,19564811.427330535,Y,Moonee Valley-Metro-TS-Y-DN-N,Moonee Valley,0.0
86,2017-03-11,D,Country,19486562.382155348,Y,Racing.com Park-Country-TS-Y-DN-D,Racing.com Park,0.0
87,2017-03-12,D,Country,19486562.382155348,Y,Racing.com Park-Country-TS-Y-DN-D,Racing.com Park,0.0
88,2017-03-05,D,Country,17389047.771070555,Y,Donald-Country-TS-Y-DN-D,Donald,0.0
89,2017-03-06,D,Country,17336889.57794861,Y,Cranbourne-Country-TS-Y-DN-D,Cranbourne,0.0
90,2017-03-12,D,Country,17209788.306681145,Y,bet365 Geelong Synthetic-Country-TS-Y-DN-D,bet365 Geelong Synthetic,0.0
91,2017-03-20,D,Country,16670282.455453161,Y,Dunkeld-Country-TS-Y-DN-D,Dunkeld,0.0
92,2017-03-04,D,Country,16818213.643673655,Y,bet365 Geelong-Country-TS-Y-DN-D,bet365 Geelong,0.0
93,2017-03-26,D,Ballarat,16316035.44420993,TS,Sportsbet-Ballarat-Country-TS-Y-DN-D,Sportsbet-Ballarat,0.0
94,2017-03-31,D,Country,16286748.8287988,Y,Mildura-Country-TS-Y-DN-D,Mildura,0.0
95,2017-03-09,D,Country,16423842.950096488,Y,Avoca-Country-TS-Y-DN-D,Avoca,0.0
96,2017-03-23,D,Country,16262604.123662338,Y,Yarra Valley-Country-TS-Y-DN-D,Yarra Valley,0.0
97,2017-03-08,D,Country,16084380.944629412,Y,Werribee-Country-TS-Y-DN-D,Werribee,0.0
98,2017-03-27,D,Country,15933587.924197864,Y,Penshurst-Country-TS-Y-DN-D,Penshurst,0.0
99,2017-03-02,D,Country,15941929.787945304,Y,Murtoa-Country-TS-Y-DN-D,Murtoa,0.0
100,2017-03-21,D,Country,15822131.192762345,Y,Terang-Country-TS-Y-DN-D,Terang,0.0
101,2017-03-13,D,Country,15874074.159082666,Y,Mornington-Country-TS-Y-DN-D,Mornington,0.0
102,2017-03-07,D,Country,15896450.169077367,Y,Ladbrokes Park Hillside-Country-TS-Y-DN-D,Ladbrokes Park Hillside,0.0
103,2017-03-03,D,Country,16124851.375697788,Y,Ladbrokes Park Lakeside-Country-TS-Y-DN-D,Ladbrokes Park Lakeside,0.0
104,2017-03-05,D,Country,15859959.521923799,Y,Seymour-Country-TS-Y-DN-D,Seymour,0.0
105,2017-03-18,D,Country,15957658.882528003,Y,Coleraine-Country-TS-Y-DN-D,Coleraine,0.0
106,2017-03-18,D,Country,15805433.905835655,Y,Camperdown-Country-TS-Y-DN-D,Camperdown,0.0
107,2017-03-22,D,Country,15769568.32981024,Y,Kerang-Country-TS-Y-DN-D,Kerang,0.0
108,2017-03-26,D,Country,13831023.11248776,N,Dunkeld-Country-TS-N-DN-D,Dunkeld,0.0
109,2017-03-31,D,Country,13845470.163799565,N,Burrumbeet-Country-TS-N-DN-D,Burrumbeet,0.0
110,2017-03-19,D,Country,13829611.275404286,N,Avoca-Country-TS-N-DN-D,Avoca,0.0
111,2017-03-19,D,Country,13824019.503377073,N,Kerang-Country-TS-N-DN-D,Kerang,0.0
112,2017-03-30,D,Country,13824405.748198424,N,Mildura-Country-TS-N-DN-D,Mildura,0.0
113,2017-03-14,D,Country,13824997.996087085,N,Balnarring-Country-TS-N-DN-D,Balnarring,0.0
114,2017-04-22,D,Metro,30922303.907434423,Y,Flemington-Metro-TS-Y-DN-D,Flemington,0.0
115,2017-04-23,D,Metro,27161425.658204306,Y,Caulfield-Metro-TS-Y-DN-D,Caulfield,0.0
116,2017-04-02,D,Metro,26309211.8744743,Y,Racing.com Park-Metro-TS-Y-DN-D,Racing.com Park,0.0
117,2017-04-12,D,Country,23060396.634760134,Y,Racing.com Park Synthetic-Country-TS-Y-DN-D,Racing.com Park Synthetic,0.0
118,2017-04-11,D,Country,23060396.634760134,Y,Racing.com Park Synthetic-Country-TS-Y-DN-D,Racing.com Park Synthetic,0.0
119,2017-04-20,N,Country,22393951.177079413,Y,Racing.com Park Synthetic-Country-TS-Y-DN-N,Racing.com Park Synthetic,0.0
120,2017-04-15,D,Metro,21690287.924940962,Y,Cranbourne-Metro-TS-Y-DN-D,Cranbourne,0.0
121,2017-04-13,D,Metro,21575582.5121987,Y,bet365 Geelong Synthetic-Metro-TS-Y-DN-D,bet365 Geelong Synthetic,0.0
122,2017-04-24,D,Metro,21299723.541914333,Y,bet365 Geelong-Metro-TS-Y-DN-D,bet365 Geelong,0.0
123,2017-04-27,D,Country,19202474.53912612,Y,Racing.com Park-Country-TS-Y-DN-D,Racing.com Park,0.0
124,2017-04-25,D,Country,19202474.53912612,Y,Racing.com Park-Country-TS-Y-DN-D,Racing.com Park,0.0
125,2017-04-14,N,Country,18813740.345830966,Y,Racing.com Park-Country-TS-Y-DN-N,Racing.com Park,0.0
126,2017-04-10,D,Country,17208124.870402053,Y,Werribee-Country-TS-Y-DN-D,Werribee,0.0
127,2017-04-21,D,Country,17158597.598595273,Y,Cranbourne-Country-TS-Y-DN-D,Cranbourne,0.0
128,2017-04-05,D,Country,17039487.76868418,Y,bet365 Geelong Synthetic-Country-TS-Y-DN-D,bet365 Geelong Synthetic,0.0
129,2017-04-08,N,Country,16962953.287859224,Y,Cranbourne-Country-TS-Y-DN-N,Cranbourne,0.0
130,2017-04-24,D,Country,16667482.998931583,Y,bet365 Geelong-Country-TS-Y-DN-D,bet365 Geelong,0.0
131,2017-04-26,D,Country,16291606.128929686,Y,Avoca-Country-TS-Y-DN-D,Avoca,0.0
132,2017-04-19,D,Country,16525614.932440039,Y,Dunkeld-Country-TS-Y-DN-D,Dunkeld,0.0
133,2017-04-19,D,Country,16162579.426849995,Y,Mildura-Country-TS-Y-DN-D,Mildura,0.0
134,2017-04-25,D,Country,16139641.411897626,Y,Kerang-Country-TS-Y-DN-D,Kerang,0.0
135,2017-04-09,D,Ballarat,16190402.372643199,TS,Sportsbet-Ballarat-Country-TS-Y-DN-D,Sportsbet-Ballarat,0.0
136,2017-04-30,D,Country,16008773.19152873,Y,Swan Hill-Country-TS-Y-DN-D,Swan Hill,0.0
137,2017-04-16,D,Country,15970325.368383717,Y,Ararat-Country-TS-Y-DN-D,Ararat,0.0
138,2017-04-01,D,Country,15791786.889025241,Y,Ladbrokes Park Hillside-Country-TS-Y-DN-D,Ladbrokes Park Hillside,0.0
139,2017-04-01,D,Country,15769568.32981024,Y,Mornington-Country-TS-Y-DN-D,Mornington,0.0
140,2017-04-04,D,Country,15827068.59478378,Y,Penshurst-Country-TS-Y-DN-D,Penshurst,0.0
141,2017-04-28,D,Country,15757119.950443912,Y,Seymour-Country-TS-Y-DN-D,Seymour,0.0
142,2017-04-06,D,Country,15849936.54860529,Y,Coleraine-Country-TS-Y-DN-D,Coleraine,0.0
143,2017-04-07,D,Country,15652179.573305931,Y,Donald-Country-TS-Y-DN-D,Donald,0.0
144,2017-04-09,D,Country,15658513.430598993,Y,Ladbrokes Park Lakeside-Country-TS-Y-DN-D,Ladbrokes Park Lakeside,0.0
145,2017-04-03,D,Country,15721182.183756582,Y,Terang-Country-TS-Y-DN-D,Terang,0.0
146,2017-04-17,D,Country,15705319.384230819,Y,Camperdown-Country-TS-Y-DN-D,Camperdown,0.0
147,2017-04-02,D,Country,15834001.24002327,Y,Murtoa-Country-TS-Y-DN-D,Murtoa,0.0
148,2017-04-18,D,Country,15670333.89889989,Y,Yarra Valley-Country-TS-Y-DN-D,Yarra Valley,0.0
149,2017-04-07,D,Country,13843289.53353738,N,Burrumbeet-Country-TS-N-DN-D,Burrumbeet,0.0
150,2017-04-29,D,Country,13829584.557735223,N,Dunkeld-Country-TS-N-DN-D,Dunkeld,0.0
151,2017-05-24,D,Metro,31928831.6678422,Y,Flemington-Metro-TS-Y-DN-D,Flemington,0.0
152,2017-05-19,D,Metro,27946842.786933076,Y,Caulfield-Metro-TS-Y-DN-D,Caulfield,0.0
153,2017-05-01,D,Metro,27044525.406234812,Y,Racing.com Park-Metro-TS-Y-DN-D,Racing.com Park,0.0
154,2017-05-15,D,Country,23609492.41904744,Y,Racing.com Park Synthetic-Country-TS-Y-DN-D,Racing.com Park Synthetic,0.0
155,2017-05-09,D,Country,23609492.41904744,Y,Racing.com Park Synthetic-Country-TS-Y-DN-D,Racing.com Park Synthetic,0.0
156,2017-05-21,N,Country,22903520.48033804,Y,Racing.com Park Synthetic-Country-TS-Y-DN-N,Racing.com Park Synthetic,0.0
157,2017-05-27,D,Country,23609492.41904744,Y,Racing.com Park Synthetic-Country-TS-Y-DN-D,Racing.com Park Synthetic,0.0
158,2017-05-13,D,Country,19519966.73308681,Y,Racing.com Park-Country-TS-Y-DN-D,Racing.com Park,0.0
159,2017-05-22,D,Country,19519966.73308681,Y,Racing.com Park-Country-TS-Y-DN-D,Racing.com Park,0.0
160,2017-05-28,N,Country,19108377.9677107,Y,Racing.com Park-Country-TS-Y-DN-N,Racing.com Park,0.0
161,2017-05-17,D,Country,17410125.920675263,Y,Cranbourne-Country-TS-Y-DN-D,Cranbourne,0.0
162,2017-05-16,D,Country,17357661.21603447,Y,bet365 Geelong Synthetic-Country-TS-Y-DN-D,bet365 Geelong Synthetic,0.0
163,2017-05-31,D,Country,17229813.024650093,Y,bet365 Geelong-Country-TS-Y-DN-D,bet365 Geelong,0.0
164,2017-05-10,D,Country,16835937.24387914,Y,Dunkeld-Country-TS-Y-DN-D,Dunkeld,0.0
165,2017-05-11,D,Country,16687136.726978466,Y,Avoca-Country-TS-Y-DN-D,Avoca,0.0
166,2017-05-05,D,Ballarat,16277062.643011406,TS,Sportsbet-Ballarat-Country-TS-Y-DN-D,Sportsbet-Ballarat,0.0
167,2017-05-06,D,Country,16138500.380731314,Y,Mildura-Country-TS-Y-DN-D,Mildura,0.0
168,2017-05-12,D,Country,16097792.122151036,Y,Kerang-Country-TS-Y-DN-D,Kerang,0.0
169,2017-05-20,D,Country,15954503.840601511,Y,Werribee-Country-TS-Y-DN-D,Werribee,0.0
170,2017-05-26,D,Country,15908756.95735531,Y,Murtoa-Country-TS-Y-DN-D,Murtoa,0.0
171,2017-05-04,D,Country,15970325.368383717,Y,Donald-Country-TS-Y-DN-D,Donald,0.0
172,2017-05-08,D,Country,15817205.830242425,Y,Seymour-Country-TS-Y-DN-D,Seymour,0.0
173,2017-05-23,D,Country,15872051.870187368,Y,Ladbrokes Park Hillside-Country-TS-Y-DN-D,Ladbrokes Park Hillside,0.0
174,2017-05-25,D,Country,15750449.634477645,Y,Ladbrokes Park Lakeside-Country-TS-Y-DN-D,Ladbrokes Park Lakeside,0.0
175,2017-05-30,D,Country,15946112.955268499,Y,Coleraine-Country-TS-Y-DN-D,Coleraine,0.0
176,2017-05-02,D,Country,15767648.047572799,Y,Camperdown-Country-TS-Y-DN-D,Camperdown,0.0
177,2017-05-08,D,Country,15761898.439705659,Y,Yarra Valley-Country-TS-Y-DN-D,Yarra Valley,0.0
178,2017-05-03,D,Country,15886249.453066062,Y,Penshurst-Country-TS-Y-DN-D,Penshurst,0.0
179,2017-05-18,D,Country,15781129.48747982,Y,Terang-Country-TS-Y-DN-D,Terang,0.0
180,2017-05-07,D,Country,15624388.407619558,Y,Ararat-Country-TS-Y-DN-D,Ararat,0.0
181,2017-05-29,D,Country,15552017.929919414,Y,St Arnaud-Country-TS-Y-DN-D,St Arnaud,0.0
182,2017-05-29,D,Country,15701606.05787263,Y,Swan Hill-Country-TS-Y-DN-D,Swan Hill,0.0
183,2017-05-14,D,Country,15834001.24002327,Y,Mornington-Country-TS-Y-DN-D,Mornington,0.0
184,2017-06-22,D,Metro,27871074.455607623,Y,Flemington-Metro-TS-Y-DN-D,Flemington,0.0
185,2017-06-23,D,Metro,24780480.025690828,Y,Caulfield-Metro-TS-Y-DN-D,Caulfield,0.0
186,2017-06-02,D,Metro,24080152.33663749,Y,Racing.com Park-Metro-TS-Y-DN-D,Racing.com Park,0.0
187,2017-06-27,D,Country,21410358.31027016,Y,Racing.com Park Synthetic-Country-TS-Y-DN-D,Racing.com Park Synthetic,0.0
188,2017-06-25,D,Country,21410358.31027016,Y,Racing.com Park Synthetic-Country-TS-Y-DN-D,Racing.com Park Synthetic,0.0
189,2017-06-20,D,Country,21410358.31027016,Y,Racing.com Park Synthetic-Country-TS-Y-DN-D,Racing.com Park Synthetic,0.0
190,2017-06-15,D,Metro,20284437.69643097,Y,Cranbourne-Metro-TS-Y-DN-D,Cranbourne,0.0
191,2017-06-13,D,Metro,20190175.69532123,Y,bet365 Geelong Synthetic-Metro-TS-Y-DN-D,bet365 Geelong Synthetic,0.0
192,2017-06-24,D,Metro,19963481.784882095,Y,bet365 Geelong-Metro-TS-Y-DN-D,bet365 Geelong,0.0
193,2017-06-12,D,Metro,18647708.44793131,Y,Moonee Valley-Metro-TS-Y-DN-D,Moonee Valley,0.0
194,2017-06-10,D,Country,18240015.70684762,Y,Racing.com Park-Country-TS-Y-DN-D,Racing.com Park,0.0
195,2017-06-11,D,Country,16601109.693677217,Y,Cranbourne-Country-TS-Y-DN-D,Cranbourne,0.0
196,2017-06-05,D,Country,16560409.436920345,Y,bet365 Geelong Synthetic-Country-TS-Y-DN-D,bet365 Geelong Synthetic,0.0
197,2017-06-06,D,Country,16462527.997406337,Y,bet365 Geelong-Country-TS-Y-DN-D,bet365 Geelong,0.0
198,2017-06-19,D,Country,16156823.905673184,Y,Dunkeld-Country-TS-Y-DN-D,Dunkeld,0.0
199,2017-06-26,D,Country,15764771.138070319,Y,Warrnambool-Country-TS-Y-DN-D,Warrnambool,0.0
200,2017-06-08,D,Ballarat,15723057.067010026,TS,Sportsbet-Ballarat-Country-TS-Y-DN-D,Sportsbet-Ballarat,0.0
201,2017-06-09,D,Country,15741906.946359258,Y,Sale-Country-TS-Y-DN-D,Sale,0.0
202,2017-06-30,D,Country,15583917.433578193,Y,Kerang-Country-TS-Y-DN-D,Kerang,0.0
203,2017-06-03,D,Country,15615512.8802212,Y,Mildura-Country-TS-Y-DN-D,Mildura,0.0
204,2017-06-16,D,Country,15484984.952605791,Y,Donald-Country-TS-Y-DN-D,Donald,0.0
205,2017-06-01,D,Country,15418940.387243658,Y,Penshurst-Country-TS-Y-DN-D,Penshurst,0.0
206,2017-06-04,D,Country,15437199.036101729,Y,Murtoa-Country-TS-Y-DN-D,Murtoa,0.0
207,2017-06-17,D,Country,15408710.624570817,Y,Ladbrokes Park Hillside-Country-TS-Y-DN-D,Ladbrokes Park Hillside,0.0
208,2017-06-28,D,Country,15379177.878710128,Y,Mornington-Country-TS-Y-DN-D,Mornington,0.0
209,2017-06-21,D,Country,15471889.719875865,Y,Werribee-Country-TS-Y-DN-D,Werribee,0.0
210,2017-06-29,D,Country,15466192.647718277,Y,Coleraine-Country-TS-Y-DN-D,Coleraine,0.0
211,2017-06-18,D,Country,15366142.232084967,Y,Seymour-Country-TS-Y-DN-D,Seymour,0.0
212,2017-07-24,D,Metro,27122344.691566538,Y,Flemington-Metro-TS-Y-DN-D,Flemington,0.0
213,2017-07-19,D,Metro,24196228.696916074,Y,Caulfield-Metro-TS-Y-DN-D,Caulfield,0.0
214,2017-07-01,D,Metro,23533171.76760855,Y,Racing.com Park-Metro-TS-Y-DN-D,Racing.com Park,0.0
215,2017-07-17,D,Country,21005461.58753616,Y,Avoca-Country-TS-Y-DN-D,Avoca,0.0
216,2017-07-15,D,Metro,19939461.375741884,Y,Cranbourne-Metro-TS-Y-DN-D,Cranbourne,0.0
217,2017-07-13,D,Metro,19850215.90682334,Y,bet365 Geelong Synthetic-Metro-TS-Y-DN-D,bet365 Geelong Synthetic,0.0
218,2017-07-16,D,Ballarat,16452156.513585687,TS,Sportsbet-Ballarat-Country-TS-Y-DN-D,Sportsbet-Ballarat,0.0
219,2017-07-28,D,Country,16413622.284982331,Y,Mornington-Country-TS-Y-DN-D,Mornington,0.0
220,2017-07-10,D,Country,16320950.000657707,Y,Ladbrokes Park Hillside-Country-TS-Y-DN-D,Ladbrokes Park Hillside,0.0
221,2017-07-11,D,Country,16031515.183914524,Y,Penshurst-Country-TS-Y-DN-D,Penshurst,0.0
222,2017-07-05,D,Country,15921136.067394067,Y,Murtoa-Country-TS-Y-DN-D,Murtoa,0.0
223,2017-07-06,D,Country,15739067.715944283,Y,Coleraine-Country-TS-Y-DN-D,Coleraine,0.0
224,2017-07-20,D,Country,15620832.995311923,Y,Kerang-Country-TS-Y-DN-D,Kerang,0.0
225,2017-07-12,D,Country,15660327.084005661,Y,Werribee-Country-TS-Y-DN-D,Werribee,0.0
226,2017-07-04,D,Country,15638679.702381317,Y,Donald-Country-TS-Y-DN-D,Donald,0.0
227,2017-07-26,D,Country,15489098.238097064,Y,Seymour-Country-TS-Y-DN-D,Seymour,0.0
228,2017-07-09,D,Country,15519012.205742028,Y,Terang-Country-TS-Y-DN-D,Terang,0.0
229,2017-07-31,D,Country,15395430.847720131,Y,Sale-Country-TS-Y-DN-D,Sale,0.0
230,2017-07-08,D,Country,15350188.051302701,Y,bet365 Geelong-Country-TS-Y-DN-D,bet365 Geelong,0.0
231,2017-07-23,D,Country,15383032.53056347,Y,Warrnambool-Country-TS-Y-DN-D,Warrnambool,0.0
232,2017-07-27,D,Country,15295254.723581575,Y,Racing.com Park-Country-TS-Y-DN-D,Racing.com Park,0.0
233,2017-07-25,D,Country,15282912.821415037,Y,Mildura-Country-TS-Y-DN-D,Mildura,0.0
234,2017-07-02,D,Country,15323215.765377425,Y,Cranbourne-Country-TS-Y-DN-D,Cranbourne,0.0
235,2017-07-03,D,Country,15377638.651055496,Y,Dunkeld-Country-TS-Y-DN-D,Dunkeld,0.0
236,2017-07-30,D,Country,15255692.693183448,Y,Racing.com Park Synthetic-Country-TS-Y-DN-D,Racing.com Park Synthetic,0.0
237,2017-07-18,D,Country,15332901.110011686,Y,bet365 Geelong Synthetic-Country-TS-Y-DN-D,bet365 Geelong Synthetic,0.0
238,2017-07-21,D,Country,15255692.693183448,Y,Racing.com Park Synthetic-Country-TS-Y-DN-D,Racing.com Park Synthetic,0.0
239,2017-07-29,D,Country,15255692.693183448,Y,Racing.com Park Synthetic-Country-TS-Y-DN-D,Racing.com Park Synthetic,0.0
240,2017-08-24,D,Metro,26169538.47357562,Y,Flemington-Metro-TS-Y-DN-D,Flemington,0.0
241,2017-08-19,D,Metro,23448020.738518205,Y,Caulfield-Metro-TS-Y-DN-D,Caulfield,0.0
242,2017-08-01,D,Metro,22832693.746112723,Y,Racing.com Park-Metro-TS-Y-DN-D,Racing.com Park,0.0
243,2017-08-17,D,Country,20490204.77046654,Y,Avoca-Country-TS-Y-DN-D,Avoca,0.0
244,2017-08-15,D,Metro,19500457.079134073,Y,Cranbourne-Metro-TS-Y-DN-D,Cranbourne,0.0
245,2017-08-13,D,Metro,19417595.466306306,Y,bet365 Geelong Synthetic-Metro-TS-Y-DN-D,bet365 Geelong Synthetic,0.0
246,2017-08-16,D,Ballarat,16262604.123662338,TS,Sportsbet-Ballarat-Country-TS-Y-DN-D,Sportsbet-Ballarat,0.0
247,2017-08-28,D,Country,16226826.303568613,Y,Ladbrokes Park Hillside-Country-TS-Y-DN-D,Ladbrokes Park Hillside,0.0
248,2017-08-10,D,Country,16139641.411897626,Y,Penshurst-Country-TS-Y-DN-D,Penshurst,0.0
249,2017-08-11,D,Country,15871041.466082998,Y,Murtoa-Country-TS-Y-DN-D,Murtoa,0.0
250,2017-08-05,D,Country,15769568.32981024,Y,Coleraine-Country-TS-Y-DN-D,Coleraine,0.0
251,2017-08-06,D,Country,15600523.588056564,Y,Werribee-Country-TS-Y-DN-D,Werribee,0.0
252,2017-08-20,D,Country,15490746.366170045,Y,Mildura-Country-TS-Y-DN-D,Mildura,0.0
253,2017-08-12,D,Country,15527415.386188447,Y,Donald-Country-TS-Y-DN-D,Donald,0.0
254,2017-08-04,D,Country,15507316.472746368,Y,Kerang-Country-TS-Y-DN-D,Kerang,0.0
255,2017-08-26,D,Country,15367670.227284245,Y,Sale-Country-TS-Y-DN-D,Sale,0.0
256,2017-08-09,D,Country,15396208.963370819,Y,Seymour-Country-TS-Y-DN-D,Seymour,0.0
257,2017-08-31,D,Country,15280745.453468364,Y,Warrnambool-Country-TS-Y-DN-D,Warrnambool,0.0
258,2017-08-08,D,Country,15239461.042264659,Y,bet365 Geelong Synthetic-Country-TS-Y-DN-D,bet365 Geelong Synthetic,0.0
259,2017-08-23,D,Country,15269956.108927589,Y,Dunkeld-Country-TS-Y-DN-D,Dunkeld,0.0
260,2017-08-27,D,Country,15188457.174078107,Y,Mornington-Country-TS-Y-DN-D,Mornington,0.0
261,2017-08-25,D,Country,15176327.000606373,Y,Racing.com Park Synthetic-Country-TS-Y-DN-D,Racing.com Park Synthetic,0.0
262,2017-08-02,D,Country,15214418.122545563,Y,Racing.com Park-Country-TS-Y-DN-D,Racing.com Park,0.0
263,2017-08-29,D,Country,15176327.000606373,Y,Racing.com Park Synthetic-Country-TS-Y-DN-D,Racing.com Park Synthetic,0.0
264,2017-08-07,D,Country,15176327.000606373,Y,Racing.com Park Synthetic-Country-TS-Y-DN-D,Racing.com Park Synthetic,0.0
265,2017-08-03,D,Country,15264234.022280443,Y,bet365 Geelong-Country-TS-Y-DN-D,bet365 Geelong,0.0
266,2017-08-18,D,Country,15223410.660619628,Y,Cranbourne-Country-TS-Y-DN-D,Cranbourne,0.0
267,2017-09-22,D,Metro,32449520.673169587,Y,Flemington-Metro-TS-Y-DN-D,Flemington,0.0
268,2017-09-23,D,Metro,28346045.38157684,Y,Caulfield-Metro-TS-Y-DN-D,Caulfield,0.0
269,2017-09-02,D,Metro,27418261.933003172,Y,Racing.com Park-Metro-TS-Y-DN-D,Racing.com Park,0.0
270,2017-09-12,D,Country,23886282.145191975,Y,Racing.com Park Synthetic-Country-TS-Y-DN-D,Racing.com Park Synthetic,0.0
271,2017-09-11,D,Country,23886282.145191975,Y,Racing.com Park Synthetic-Country-TS-Y-DN-D,Racing.com Park Synthetic,0.0
272,2017-09-27,D,Country,23886282.145191975,Y,Racing.com Park Synthetic-Country-TS-Y-DN-D,Racing.com Park Synthetic,0.0
273,2017-09-15,D,Metro,22393951.177079413,Y,Cranbourne-Metro-TS-Y-DN-D,Cranbourne,0.0
274,2017-09-13,D,Metro,22269013.32476257,Y,bet365 Geelong Synthetic-Metro-TS-Y-DN-D,bet365 Geelong Synthetic,0.0
275,2017-09-24,N,Metro,19762268.21616057,Y,Moonee Valley-Metro-TS-Y-DN-N,Moonee Valley,0.0
276,2017-09-25,D,Country,19681337.936963387,Y,Racing.com Park-Country-TS-Y-DN-D,Racing.com Park,0.0
277,2017-09-10,D,Country,17511951.17045131,Y,Cranbourne-Country-TS-Y-DN-D,Cranbourne,0.0
278,2017-09-21,D,Country,17458005.756519053,Y,bet365 Geelong Synthetic-Country-TS-Y-DN-D,bet365 Geelong Synthetic,0.0
279,2017-09-05,D,Country,17326549.310667694,Y,bet365 Geelong-Country-TS-Y-DN-D,bet365 Geelong,0.0
280,2017-09-06,D,Country,16921557.189258564,Y,Dunkeld-Country-TS-Y-DN-D,Dunkeld,0.0
281,2017-09-26,D,Country,16373136.540050447,Y,Sale-Country-TS-Y-DN-D,Sale,0.0
282,2017-09-20,D,Ballarat,16348152.3108319,TS,Sportsbet-Ballarat-Country-TS-Y-DN-D,Sportsbet-Ballarat,0.0
283,2017-09-19,D,Country,16205609.827451836,Y,Mildura-Country-TS-Y-DN-D,Mildura,0.0
284,2017-09-03,D,Country,16162579.426849995,Y,Kerang-Country-TS-Y-DN-D,Kerang,0.0
285,2017-09-30,D,Country,16031515.183914524,Y,Donald-Country-TS-Y-DN-D,Donald,0.0
286,2017-09-16,D,Country,16015247.125777245,Y,Werribee-Country-TS-Y-DN-D,Werribee,0.0
287,2017-09-01,D,Country,15931507.544760458,Y,Ladbrokes Park Hillside-Country-TS-Y-DN-D,Ladbrokes Park Hillside,0.0
288,2017-09-04,D,Country,15945066.397352267,Y,Penshurst-Country-TS-Y-DN-D,Penshurst,0.0
289,2017-09-17,D,Country,15892363.904720843,Y,Mornington-Country-TS-Y-DN-D,Mornington,0.0
290,2017-09-08,D,Country,15969266.990886018,Y,Murtoa-Country-TS-Y-DN-D,Murtoa,0.0
291,2017-09-28,D,Country,15874074.159082666,Y,Seymour-Country-TS-Y-DN-D,Seymour,0.0
292,2017-09-30,D,Country,15817205.830242425,Y,Yarra Valley-Country-TS-Y-DN-D,Yarra Valley,0.0
293,2017-09-14,D,Country,15824104.707184307,Y,Camperdown-Country-TS-Y-DN-D,Camperdown,0.0
294,2017-09-29,D,Country,16403441.466465224,Y,Warrnambool-Country-TS-Y-DN-D,Warrnambool,0.0
295,2017-09-18,D,Country,15836979.63512003,Y,Terang-Country-TS-Y-DN-D,Terang,0.0
296,2017-09-09,D,Country,16006619.424818162,Y,Coleraine-Country-TS-Y-DN-D,Coleraine,0.0
297,2017-10-24,D,Metro,35946433.89155877,Y,Flemington-Metro-TS-Y-DN-D,Flemington,0.0
298,2017-10-19,D,Metro,31073436.411350004,Y,Caulfield-Metro-TS-Y-DN-D,Caulfield,0.0
299,2017-10-01,D,Metro,29971666.305327494,Y,Racing.com Park-Metro-TS-Y-DN-D,Racing.com Park,0.0
300,2017-10-15,D,Country,25777336.527976315,Y,Racing.com Park Synthetic-Country-TS-Y-DN-D,Racing.com Park Synthetic,0.0
301,2017-10-13,D,Country,25777336.527976315,Y,Racing.com Park Synthetic-Country-TS-Y-DN-D,Racing.com Park Synthetic,0.0
302,2017-10-05,N,Country,24915313.037795004,Y,Racing.com Park Synthetic-Country-TS-Y-DN-N,Racing.com Park Synthetic,0.0
303,2017-10-15,N,Metro,20879948.812327217,Y,Moonee Valley-Metro-TS-Y-DN-N,Moonee Valley,0.0
304,2017-10-17,D,Country,20783841.727825347,Y,Racing.com Park-Country-TS-Y-DN-D,Racing.com Park,0.0
305,2017-10-21,D,Country,20783841.727825347,Y,Racing.com Park-Country-TS-Y-DN-D,Racing.com Park,0.0
306,2017-10-14,N,Country,20281273.332971662,Y,Racing.com Park-Country-TS-Y-DN-N,Racing.com Park,0.0
307,2017-10-16,D,Country,18207631.20001482,Y,Penshurst-Country-TS-Y-DN-D,Penshurst,0.0
308,2017-10-28,D,Country,18143569.43590495,Y,Cranbourne-Country-TS-Y-DN-D,Cranbourne,0.0
309,2017-10-10,D,Country,17987461.04390285,Y,bet365 Geelong Synthetic-Country-TS-Y-DN-D,bet365 Geelong Synthetic,0.0
310,2017-10-11,D,Country,17506520.99994195,Y,bet365 Geelong-Country-TS-Y-DN-D,bet365 Geelong,0.0
311,2017-10-25,D,Country,17324828.876096357,Y,Dunkeld-Country-TS-Y-DN-D,Dunkeld,0.0
312,2017-10-06,D,Country,17022146.81380554,Y,Avoca-Country-TS-Y-DN-D,Avoca,0.0
313,2017-10-28,D,Country,16855255.364893295,Y,Mildura-Country-TS-Y-DN-D,Mildura,0.0
314,2017-10-20,D,Country,16825585.858590584,Y,Kerang-Country-TS-Y-DN-D,Kerang,0.0
315,2017-10-12,D,Country,16891243.355453316,Y,Bendigo-Country-TS-Y-DN-D,Bendigo,0.0
316,2017-10-26,D,Country,16605212.60621798,Y,Werribee-Country-TS-Y-DN-D,Werribee,0.0
317,2017-10-09,D,Country,16656312.471284732,Y,Donald-Country-TS-Y-DN-D,Donald,0.0
318,2017-10-31,D,Country,16449569.96670251,Y,Coleraine-Country-TS-Y-DN-D,Coleraine,0.0
319,2017-10-08,D,Country,16375648.408457246,Y,Ladbrokes Park Hillside-Country-TS-Y-DN-D,Ladbrokes Park Hillside,0.0
320,2017-10-23,D,Country,16430251.169663992,Y,Towong-Country-TS-Y-DN-D,Towong,0.0
321,2017-10-27,D,Country,16284323.734010939,Y,Wodonga-Country-TS-Y-DN-D,Wodonga,0.0
322,2017-10-04,D,Country,16346909.49255561,Y,Ladbrokes Park Lakeside-Country-TS-Y-DN-D,Ladbrokes Park Lakeside,0.0
323,2017-10-02,D,Country,16330807.956706285,Y,Manangatang-Country-TS-Y-DN-D,Manangatang,0.0
324,2017-10-29,D,Country,16262604.123662338,Y,Echuca-Country-TS-Y-DN-D,Echuca,0.0
325,2017-10-29,D,Country,16182253.63893006,Y,Murtoa-Country-TS-Y-DN-D,Murtoa,0.0
326,2017-10-15,D,Country,16420005.521269385,Y,Wangaratta-Country-TS-Y-DN-D,Wangaratta,0.0
327,2017-10-07,D,Country,16122584.306717869,Y,Mornington-Country-TS-Y-DN-D,Mornington,0.0
328,2017-10-30,D,Country,16218553.286517102,Y,St Arnaud-Country-TS-Y-DN-D,St Arnaud,0.0
329,2017-10-18,D,Country,16203263.931292474,Y,Ararat-Country-TS-Y-DN-D,Ararat,0.0
330,2017-10-22,D,Country,16027165.37814933,Y,Yarra Valley-Country-TS-Y-DN-D,Yarra Valley,0.0
331,2017-10-22,D,Country,16195071.31221592,Y,Swan Hill-Country-TS-Y-DN-D,Swan Hill,0.0
332,2017-10-29,D,Country,15938797.769817457,Y,Camperdown-Country-TS-Y-DN-D,Camperdown,0.0
333,2017-10-08,D,Country,15830036.827196933,Y,Seymour-Country-TS-Y-DN-D,Seymour,0.0
334,2017-10-16,D,Country,15877111.29775903,Y,Terang-Country-TS-Y-DN-D,Terang,0.0
335,2017-10-07,D,Country,13855336.398481209,N,Burrumbeet-Country-TS-N-DN-D,Burrumbeet,0.0
336,2017-10-03,D,Country,13837592.233320877,N,Dunkeld-Country-TS-N-DN-D,Dunkeld,0.0
337,2017-10-23,D,Country,13835858.186016139,N,Avoca-Country-TS-N-DN-D,Avoca,0.0
338,2017-11-22,D,Metro,41119979.26807993,Y,Flemington-Metro-TS-Y-DN-D,Flemington,0.0
339,2017-11-23,D,Metro,35118910.00838404,Y,Caulfield-Metro-TS-Y-DN-D,Caulfield,0.0
340,2017-11-02,D,Metro,33759069.67287777,Y,Racing.com Park-Metro-TS-Y-DN-D,Racing.com Park,0.0
341,2017-11-24,D,Country,28575077.00588004,Y,Racing.com Park Synthetic-Country-TS-Y-DN-D,Racing.com Park Synthetic,0.0
342,2017-11-20,D,Country,28575077.00588004,Y,Racing.com Park Synthetic-Country-TS-Y-DN-D,Racing.com Park Synthetic,0.0
343,2017-11-13,N,Country,27511659.079450104,Y,Racing.com Park Synthetic-Country-TS-Y-DN-N,Racing.com Park Synthetic,0.0
344,2017-11-15,D,Metro,26388854.34296332,Y,Cranbourne-Metro-TS-Y-DN-D,Cranbourne,0.0
345,2017-11-12,D,Country,22419159.11644818,Y,Racing.com Park-Country-TS-Y-DN-D,Racing.com Park,0.0
346,2017-11-05,N,Country,21798872.932482034,Y,Racing.com Park-Country-TS-Y-DN-N,Racing.com Park,0.0
347,2017-11-19,N,Metro,22533513.233176354,Y,Moonee Valley-Metro-TS-Y-DN-N,Moonee Valley,0.0
348,2017-11-27,D,Country,19236862.403568767,Y,Werribee-Country-TS-Y-DN-D,Werribee,0.0
349,2017-11-10,D,Country,19157833.897815593,Y,Cranbourne-Country-TS-Y-DN-D,Cranbourne,0.0
350,2017-11-11,D,Country,18967775.541378926,Y,bet365 Geelong Synthetic-Country-TS-Y-DN-D,bet365 Geelong Synthetic,0.0
351,2017-11-05,D,Country,18374183.768319122,Y,bet365 Geelong-Country-TS-Y-DN-D,bet365 Geelong,0.0
352,2017-11-11,D,Country,17774413.453908958,Y,Avoca-Country-TS-Y-DN-D,Avoca,0.0
353,2017-11-26,D,Ballarat,17612927.037553705,TS,Sportsbet-Ballarat-Country-TS-Y-DN-D,Sportsbet-Ballarat,0.0
354,2017-11-06,D,Country,18147811.08716967,Y,Dunkeld-Country-TS-Y-DN-D,Dunkeld,0.0
355,2017-11-19,D,Country,17531929.98821151,Y,Kerang-Country-TS-Y-DN-D,Kerang,0.0
356,2017-11-25,D,Country,17323109.281375904,Y,Swan Hill-Country-TS-Y-DN-D,Swan Hill,0.0
357,2017-11-09,D,Country,17568531.177425038,Y,Mildura-Country-TS-Y-DN-D,Mildura,0.0
358,2017-11-30,D,Country,17261759.768233597,Y,Ararat-Country-TS-Y-DN-D,Ararat,0.0
359,2017-11-16,D,Country,17069660.583493624,Y,Coleraine-Country-TS-Y-DN-D,Coleraine,0.0
360,2017-11-01,D,Country,16941420.524840783,Y,Mornington-Country-TS-Y-DN-D,Mornington,0.0
361,2017-11-01,D,Country,17033171.187768437,Y,Penshurst-Country-TS-Y-DN-D,Penshurst,0.0
362,2017-11-01,D,Country,16921557.189258564,Y,Seymour-Country-TS-Y-DN-D,Seymour,0.0
363,2017-11-04,D,Country,16976873.70993848,Y,Ladbrokes Park Hillside-Country-TS-Y-DN-D,Ladbrokes Park Hillside,0.0
364,2017-11-28,D,Country,16864212.863641642,Y,Terang-Country-TS-Y-DN-D,Terang,0.0
365,2017-11-26,D,Country,16754108.410114344,Y,Donald-Country-TS-Y-DN-D,Donald,0.0
366,2017-11-03,D,Country,17044233.30716664,Y,Murtoa-Country-TS-Y-DN-D,Murtoa,0.0
367,2017-11-03,D,Country,16838901.2868507,Y,Camperdown-Country-TS-Y-DN-D,Camperdown,0.0
368,2017-11-17,D,Country,16783076.47502704,Y,Yarra Valley-Country-TS-Y-DN-D,Yarra Valley,0.0
369,2017-11-21,D,Country,16764215.069723569,Y,Ladbrokes Park Lakeside-Country-TS-Y-DN-D,Ladbrokes Park Lakeside,0.0
370,2017-11-07,D,Country,13867741.53183338,N,Burrumbeet-Country-TS-N-DN-D,Burrumbeet,0.0
371,2017-11-17,D,Country,13843712.62711547,N,Avoca-Country-TS-N-DN-D,Avoca,0.0
372,2017-11-12,D,Country,13845873.100169037,N,Dunkeld-Country-TS-N-DN-D,Dunkeld,0.0
373,2017-11-14,D,Country,13835841.774415422,N,Mildura-Country-TS-N-DN-D,Mildura,0.0
374,2017-11-08,D,Country,13835256.262200255,N,Kerang-Country-TS-N-DN-D,Kerang,0.0
375,2017-11-18,D,Country,13836722.726790361,N,Balnarring-Country-TS-N-DN-D,Balnarring,0.0
376,2017-11-18,D,Country,13833074.640875898,N,Coleraine-Country-TS-N-DN-D,Coleraine,0.0
377,2017-11-01,D,Country,13832198.983822688,N,Penshurst-Country-TS-N-DN-D,Penshurst,0.0
378,2017-11-29,D,Country,13832537.344664987,N,Murtoa-Country-TS-N-DN-D,Murtoa,0.0
379,2017-12-24,D,Metro,34463064.99037878,Y,Flemington-Metro-TS-Y-DN-D,Flemington,0.0
380,2017-12-19,D,Metro,29924364.26026937,Y,Caulfield-Metro-TS-Y-DN-D,Caulfield,0.0
381,2017-12-01,D,Metro,28895896.156252306,Y,Racing.com Park-Metro-TS-Y-DN-D,Racing.com Park,0.0
382,2017-12-10,D,Country,24975162.986147743,Y,Racing.com Park Synthetic-Country-TS-Y-DN-D,Racing.com Park Synthetic,0.0
383,2017-12-29,D,Country,24975162.986147743,Y,Racing.com Park Synthetic-Country-TS-Y-DN-D,Racing.com Park Synthetic,0.0
384,2017-12-14,N,Country,24170883.69686929,Y,Racing.com Park Synthetic-Country-TS-Y-DN-N,Racing.com Park Synthetic,0.0
385,2017-12-15,D,Metro,23321689.25222442,Y,Cranbourne-Metro-TS-Y-DN-D,Cranbourne,0.0
386,2017-12-13,D,Metro,23183260.537956048,Y,bet365 Geelong Synthetic-Metro-TS-Y-DN-D,bet365 Geelong Synthetic,0.0
387,2017-12-17,D,Metro,22850348.588441804,Y,bet365 Geelong-Metro-TS-Y-DN-D,bet365 Geelong,0.0
388,2017-12-16,D,Metro,20918066.12935583,Y,Moonee Valley-Metro-TS-Y-DN-D,Moonee Valley,0.0
389,2017-12-28,N,Metro,20405835.634714644,Y,Moonee Valley-Metro-TS-Y-DN-N,Moonee Valley,0.0
390,2017-12-11,D,Country,20319347.862182006,Y,Racing.com Park-Country-TS-Y-DN-D,Racing.com Park,0.0
391,2017-12-12,D,Country,20319347.862182006,Y,Racing.com Park-Country-TS-Y-DN-D,Racing.com Park,0.0
392,2017-12-05,D,Country,17912528.04572441,Y,Donald-Country-TS-Y-DN-D,Donald,0.0
393,2017-12-06,D,Country,17852757.57462347,Y,Cranbourne-Country-TS-Y-DN-D,Cranbourne,0.0
394,2017-12-22,D,Country,17709013.52438963,Y,bet365 Geelong Synthetic-Country-TS-Y-DN-D,bet365 Geelong Synthetic,0.0
395,2017-12-20,D,Country,17088861.830427688,Y,Dunkeld-Country-TS-Y-DN-D,Dunkeld,0.0
396,2017-12-04,D,Country,17260070.96145877,Y,bet365 Geelong-Country-TS-Y-DN-D,bet365 Geelong,0.0
397,2017-12-26,D,Ballarat,16684320.819241479,TS,Sportsbet-Ballarat-Country-TS-Y-DN-D,Sportsbet-Ballarat,0.0
398,2017-12-31,D,Country,16650743.549248423,Y,Mildura-Country-TS-Y-DN-D,Mildura,0.0
399,2017-12-09,D,Country,16806455.472933426,Y,Avoca-Country-TS-Y-DN-D,Avoca,0.0
400,2017-12-23,D,Country,16623061.508429132,Y,Yarra Valley-Country-TS-Y-DN-D,Yarra Valley,0.0
401,2017-12-08,D,Country,16418727.626981862,Y,Werribee-Country-TS-Y-DN-D,Werribee,0.0
402,2017-12-10,D,Country,16465127.204797257,Y,Ladbrokes Park Lakeside-Country-TS-Y-DN-D,Ladbrokes Park Lakeside,0.0
403,2017-12-27,D,Country,16245842.57730915,Y,Penshurst-Country-TS-Y-DN-D,Penshurst,0.0
404,2017-12-02,D,Country,16254209.027889278,Y,Murtoa-Country-TS-Y-DN-D,Murtoa,0.0
405,2017-12-21,D,Country,16118056.805159736,Y,Terang-Country-TS-Y-DN-D,Terang,0.0
406,2017-12-02,D,Country,16161427.198215049,Y,Seymour-Country-TS-Y-DN-D,Seymour,0.0
407,2017-12-07,D,Country,16203263.931292474,Y,Ladbrokes Park Hillside-Country-TS-Y-DN-D,Ladbrokes Park Hillside,0.0
408,2017-12-17,D,Country,16273440.066998437,Y,Coleraine-Country-TS-Y-DN-D,Coleraine,0.0
409,2017-12-30,D,Country,16176450.14359495,Y,Mornington-Country-TS-Y-DN-D,Mornington,0.0
410,2017-12-18,D,Country,16098913.271384373,Y,Camperdown-Country-TS-Y-DN-D,Camperdown,0.0
411,2017-12-17,D,Country,16056692.109918375,Y,Kerang-Country-TS-Y-DN-D,Kerang,0.0
412,2017-12-26,D,Country,13835240.144435905,N,Dunkeld-Country-TS-N-DN-D,Dunkeld,0.0
413,2017-12-18,D,Country,13833606.145526502,N,Avoca-Country-TS-N-DN-D,Avoca,0.0
414,2017-12-26,D,Country,13827653.29890028,N,Mildura-Country-TS-N-DN-D,Mildura,0.0
415,2017-12-03,D,Country,13827210.467030913,N,Kerang-Country-TS-N-DN-D,Kerang,0.0
416,2017-12-10,D,Country,13825154.10799415,N,Murtoa-Country-TS-N-DN-D,Murtoa,0.0
417,2017-12-03,D,Country,13828319.576694172,N,Balnarring-Country-TS-N-DN-D,Balnarring,0.0
418,2017-12-26,D,Country,13851779.57473842,N,Burrumbeet-Country-TS-N-DN-D,Burrumbeet,0.0
419,2017-12-26,D,Country,13825560.473359924,N,Coleraine-Country-TS-N-DN-D,Coleraine,0.0
