﻿Meet_Code,Meet_Title,Venue,Meet_Date,State_Desc,Day_Night,Tab_Status,Meet_Category,Meet_Type,Apprentice_Meet_Type,Weather,Track_Condition,Total_Turnover
867348,09-JAN-16 Kilmore,bet365 Park Kilmore,2016-01-09 00:00:00.000,VIC,D,Y,Professional,Country,Provincial,Fine,Good,4976862.54
867351,03-JAN-16 Balnarring,Balnarring,2016-01-03 00:00:00.000,VIC,D,N,Picnic,Country,Other,Fine,Good,99951.34
867365,20-JAN-16 Geelong,bet365 Geelong,2016-01-20 00:00:00.000,VIC,D,Y,Professional,Country,Provincial,Showers,Good,9632492.80
867366,19-JAN-16 Echuca,Echuca,2016-01-19 00:00:00.000,VIC,D,Y,Professional,Country,Provincial,Hot,Good,4905184.24
867383,Kensington Stks Day,Flemington,2016-01-30 00:00:00.000,VIC,D,Y,Professional,Metro,Metro,Overcast,Good,45253697.85
867384,30-JAN-16 Healesville,Healesville,2016-01-30 00:00:00.000,VIC,D,N,Picnic,Country,Other,Fine,Soft,101118.48
867398,10-FEB-16 Ladbrokes Park Hillside ,Ladbrokes Park Hillside,2016-02-10 00:00:00.000,VIC,D,Y,Professional,Metro,Metro,Fine,Good,13139205.42
867401,12-FEB-16 Echuca,Echuca,2016-02-12 00:00:00.000,VIC,D,Y,Professional,Country,Provincial,Hot,Good,6188193.77
867402,Orr Stakes - Caulfield,Caulfield,2016-02-13 00:00:00.000,VIC,D,Y,Professional,Metro,Metro,Fine,Good,52443031.21
867415,Lightning Stks,Flemington,2016-02-20 00:00:00.000,VIC,D,Y,Professional,Metro,Metro,Fine,Good,52809213.68
867416,19-FEB-16 Werribee,Werribee,2016-02-19 00:00:00.000,VIC,D,Y,Professional,Country,Provincial,Showers,Good,5929605.21
867433,01-MAR-16 Bendigo,Bendigo,2016-03-01 00:00:00.000,VIC,D,Y,Professional,Country,Provincial,Hot,Good,7336695.38
867434,04-MAR-16 Donald,Donald,2016-03-04 00:00:00.000,VIC,D,Y,Professional,Country,Provincial,Fine,Good,5247284.86
867451,Geelong St Pat's Cup,bet365 Geelong,2016-03-19 00:00:00.000,VIC,D,Y,Professional,Country,Provincial,Showers,Soft,6806775.44
867452,Aust Cup/Newmarket,Flemington,2016-03-12 00:00:00.000,VIC,D,Y,Professional,Metro,Metro,Overcast,Good,69330668.44
867465,24-MAR-16 Terang,Terang,2016-03-24 00:00:00.000,VIC,D,Y,Professional,Country,Provincial,Overcast,Good,7497956.41
867466,27-MAR-16 Wangaratta,Wangaratta,2016-03-27 00:00:00.000,VIC,D,Y,Professional,Country,Provincial,Fine,Good,5804873.01
867484,Mornington Cup ,Mornington,2016-04-02 00:00:00.000,VIC,D,Y,Professional,Metro,Metro,Showers,Good,35197204.11
867501,NM,Cranbourne,2016-04-15 00:00:00.000,VIC,N,Y,Professional,Country,Provincial,Fine,Good,11164426.39
867502,21-APR-16 Wangaratta,Wangaratta,2016-04-21 00:00:00.000,VIC,D,Y,Professional,Country,Provincial,Showers,Good,6371441.98
867515,25-APR-16 Avoca,Avoca,2016-04-25 00:00:00.000,VIC,D,Y,Professional,Country,Other,Fine,Good,2967761.90
867516,24-APR-16 Bendigo,Bendigo,2016-04-24 00:00:00.000,VIC,D,Y,Professional,Country,Provincial,Fine,Good,9619911.31
867519,26-APR-16 Sportsbet-Ballarat,Sportsbet-Ballarat,2016-04-26 00:00:00.000,VIC,D,Y,Professional,Country,Provincial,Fine,Good,6702300.88
867533,28-MAY-16 Warracknabeal,Warracknabeal,2016-05-28 00:00:00.000,VIC,D,Y,Professional,Country,Provincial,Overcast,Heavy,4378595.49
867534,07-MAY-16 Flemington,Flemington,2016-05-07 00:00:00.000,VIC,D,Y,Professional,Metro,Metro,Fine,Good,33770248.79
867551,NM,Cranbourne,2016-05-20 00:00:00.000,VIC,N,Y,Professional,Country,Provincial,Overcast,Soft,8442576.26
867552,Turf,bet365 Geelong,2016-05-20 00:00:00.000,VIC,D,Y,Professional,Country,Provincial,Overcast,Soft,7757049.39
867566,Turf,Racing.com Park,2016-05-29 00:00:00.000,VIC,D,Y,Professional,Country,Provincial,Overcast,Soft,6930509.57
867569,02-JUN-16 Bendigo,Bendigo,2016-06-02 00:00:00.000,VIC,D,Y,Professional,Country,Provincial,Fine,Soft,9331714.39
867601,25-JUN-16 Moe,Moe,2016-06-25 00:00:00.000,VIC,D,Y,Professional,Country,Provincial,Showers,Heavy,5821141.36
867602,27-JUN-16 Echuca,Echuca,2016-06-27 00:00:00.000,VIC,D,Y,Professional,Country,Provincial,Overcast,Heavy,7111952.03
867616,Winter Championship / Finals Day,Flemington,2016-07-09 00:00:00.000,VIC,D,Y,Professional,Metro,Metro,Fine,Soft,41955004.19
867619,11-JUL-16 Echuca,Echuca,2016-07-11 00:00:00.000,VIC,D,Y,Professional,Country,Provincial,Overcast,Heavy,193.66
867633,Bletchingly Stks - Caulfield,Caulfield,2016-07-30 00:00:00.000,VIC,D,Y,Professional,Metro,Metro,Overcast,Good,42404751.25
867851,Twilight Meeting,Racing.com Park,2016-01-28 00:00:00.000,VIC,D,Y,Professional,Country,Provincial,Stormy,Soft,7559608.39
867852,Twilight Meeting,Racing.com Park,2016-02-04 00:00:00.000,VIC,D,Y,Professional,Country,Provincial,Fine,Good,8243216.10
867866,NM- Synthetic,Racing.com Park Synthetic,2016-04-14 00:00:00.000,VIC,N,Y,Professional,Country,Provincial,Fine,Synthetic,6402539.97
867869,NM- Synthetic,Racing.com Park Synthetic,2016-04-28 00:00:00.000,VIC,N,Y,Professional,Country,Provincial,Overcast,Synthetic,7324742.90
867870,NM- Synthetic,Racing.com Park Synthetic,2016-05-12 00:00:00.000,VIC,N,Y,Professional,Country,Provincial,Showers,Synthetic,7612197.24
867883,07-JUL-16 Racing.com Park Synthetic,Racing.com Park Synthetic,2016-07-07 00:00:00.000,VIC,D,Y,Professional,Country,Provincial,Raining,Synthetic,7517779.39
5133107,05-MAR-16 Alexandra,Alexandra,2016-03-05 00:00:00.000,VIC,D,N,Picnic,Country,Other,Hot,Good,59313.28
5133557,Tatura Cup,Tatura,2016-03-20 00:00:00.000,VIC,D,Y,Professional,Country,Provincial,Fine,Soft,4841746.29
867345,NM,Cranbourne,2016-01-08 00:00:00.000,VIC,N,Y,Professional,Country,Provincial,Fine,Good,8586838.82
867347,09-JAN-16 Healesville,Healesville,2016-01-09 00:00:00.000,VIC,D,N,Picnic,Country,Other,Fine,Good,131557.21
867352,12-JAN-16 Yarra Valley,Yarra Valley,2016-01-12 00:00:00.000,VIC,D,Y,Professional,Country,Provincial,Hot,Good,6498672.73
867354,13-JAN-16 Ladbrokes Park Lakeside,Ladbrokes Park Lakeside,2016-01-13 00:00:00.000,VIC,D,Y,Professional,Metro,Metro,Hot,Good,8930445.72
867356,NM,Cranbourne,2016-01-15 00:00:00.000,VIC,N,Y,Professional,Country,Provincial,Overcast,Good,11631048.38
867379,28-JAN-16 Warrnambool,Warrnambool,2016-01-28 00:00:00.000,VIC,D,Y,Professional,Country,Provincial,Showers,Good,7046166.92
867381,NM,Moonee Valley,2016-01-29 00:00:00.000,VIC,N,Y,Professional,Metro,Metro,Showers,Soft,15117681.21
867386,01-FEB-16 Kilmore,bet365 Park Kilmore,2016-02-01 00:00:00.000,VIC,D,Y,Professional,Country,Provincial,Fine,Good,6464988.16
867388,3-FEB-16 Ladbrokes Park Hillside,Ladbrokes Park Hillside,2016-02-03 00:00:00.000,VIC,D,Y,Professional,Metro,Metro,Showers,Good,11600559.67
867411,NM,Moonee Valley,2016-02-19 00:00:00.000,VIC,N,Y,Professional,Metro,Metro,Overcast,Good,18012541.62
867413,20-FEB-16 Woolamai,Woolamai,2016-02-20 00:00:00.000,VIC,D,N,Picnic,Country,Other,Fine,Good,92027.35
867420,25-FEB-16 Warrnambool,Warrnambool,2016-02-25 00:00:00.000,VIC,D,Y,Professional,Country,Provincial,Overcast,Soft,5375986.85
867445,17-MAR-16 Warrnambool,Warrnambool,2016-03-17 00:00:00.000,VIC,D,Y,Professional,Country,Provincial,Fine,Good,5887869.54
867447,08-MAR-16 Warrnambool,Warrnambool,2016-03-08 00:00:00.000,VIC,D,Y,Professional,Country,Provincial,Fine,Soft,6187472.93
867456,10-MAR-16 Wangaratta,Wangaratta,2016-03-10 00:00:00.000,VIC,D,Y,Professional,Country,Provincial,Stormy,Good,5744744.60
867479,26-MAR-16 Balnarring,Balnarring,2016-03-26 00:00:00.000,VIC,D,N,Picnic,Country,Other,Overcast,Good,79362.23
867481,Warracknabeal Cup,Warracknabeal,2016-03-26 00:00:00.000,VIC,D,Y,Professional,Country,Provincial,Fine,Good,5707238.25
867486,Stawell Cup,Stawell,2016-03-27 00:00:00.000,VIC,D,Y,Professional,Country,Provincial,Overcast,Good,8663761.12
867488,08-APR-16 Donald,Donald,2016-04-08 00:00:00.000,VIC,D,Y,Professional,Country,Provincial,Fine,Good,6053784.06
867511,22-APR-16 Colac,Colac,2016-04-22 00:00:00.000,VIC,D,Y,Professional,Country,Provincial,Fine,Soft,7219885.80
867513,VRC St Leger,Flemington,2016-04-25 00:00:00.000,VIC,D,Y,Professional,Metro,Metro,Fine,Good,29440768.47
867520,27-APR-16 Ladbrokes Park Lakeside,Ladbrokes Park Lakeside,2016-04-27 00:00:00.000,VIC,D,Y,Professional,Metro,Metro,Fine,Good,11099441.15
867522,29-APR-16 Wangaratta,Wangaratta,2016-04-29 00:00:00.000,VIC,D,Y,Professional,Country,Provincial,Raining,Soft,6650631.09
867545,Turf,Racing.com Park,2016-05-15 00:00:00.000,VIC,D,Y,Professional,Country,Provincial,Fine,Soft,9271467.46
867547,16-MAY-16 Moe,Moe,2016-05-16 00:00:00.000,VIC,D,Y,Professional,Country,Provincial,Fine,Soft,5714913.52
867554,21-MAY-16 Wodonga,Wodonga,2016-05-21 00:00:00.000,VIC,D,Y,Professional,Country,Provincial,Fine,Soft,4448550.62
867556,22-MAY-16 Bendigo,Bendigo,2016-05-22 00:00:00.000,VIC,D,Y,Professional,Country,Provincial,Fine,Soft,7807359.04
867579,09-JUN-16 Wangaratta,Wangaratta,2016-06-09 00:00:00.000,VIC,D,Y,Professional,Country,Provincial,Showers,Heavy,0.00
867586,Synthetic,bet365 Geelong Synthetic,2016-06-14 00:00:00.000,VIC,D,Y,Professional,Country,Provincial,Fine,Synthetic,6472580.61
867588,16-JUN-16 Sportsbet-Ballarat,Sportsbet-Ballarat,2016-06-16 00:00:00.000,VIC,D,Y,Professional,Country,Provincial,Overcast,Heavy,7714399.19
867590,18-JUN-16 Moonee Valley,Moonee Valley,2016-06-18 00:00:00.000,VIC,D,Y,Professional,Metro,Metro,Overcast,Soft,36841408.26
867613,06-JUL-16 Ladbrokes Park Lakeside,Ladbrokes Park Lakeside,2016-07-06 00:00:00.000,VIC,D,Y,Professional,Metro,Metro,Showers,Heavy,11894216.81
867615,Synthetic,bet365 Geelong Synthetic,2016-07-15 00:00:00.000,VIC,D,Y,Professional,Country,Provincial,Overcast,Synthetic,9223299.38
867620,12-JUL-16 Murtoa,Murtoa,2016-07-12 00:00:00.000,VIC,D,Y,Professional,Country,Provincial,Overcast,Heavy,6068301.27
867622,14-JUL-16 Cranbourne ,Cranbourne,2016-07-14 00:00:00.000,VIC,D,Y,Professional,Country,Provincial,Fine,Heavy,9364581.63
867654,Mornington,Mornington,2016-06-13 00:00:00.000,VIC,D,Y,Professional,Metro,Metro,Fine,Soft,12457157.70
867849,Twilight Meeting,Racing.com Park,2016-01-21 00:00:00.000,VIC,D,Y,Professional,Country,Provincial,Fine,Good,9330663.57
867854,Twilight Meeting,Racing.com Park,2016-02-25 00:00:00.000,VIC,D,Y,Professional,Country,Provincial,Fine,Good,7917926.15
867856,07-MAR-16 Kyneton,bet365 Park Kyneton,2016-03-07 00:00:00.000,VIC,D,Y,Professional,Country,Provincial,Fine,Good,5940418.09
867879,Synthetic,Racing.com Park Synthetic,2016-07-31 00:00:00.000,VIC,D,Y,Professional,Country,Provincial,Fine,Synthetic,9791947.51
5133405,02-APR-16 Werribee,Werribee,2016-04-02 00:00:00.000,VIC,D,Y,Professional,Country,Provincial,Fine,Good,5671268.88
5133558,10-APR-16 Echuca,Echuca,2016-04-10 00:00:00.000,VIC,D,Y,Professional,Country,Provincial,Fine,Good,4111512.52
5138387,Synthetic,bet365 Geelong Synthetic,2016-08-12 00:00:00.000,VIC,D,Y,Professional,Country,Provincial,Showers,Synthetic,8450568.09
5138388,P.B. Lawrence Stks - Caulfield,Caulfield,2016-08-13 00:00:00.000,VIC,D,Y,Professional,Metro,Metro,Fine,Good,45610872.66
5138405,25-AUG-16 Warrnambool,Warrnambool,2016-08-25 00:00:00.000,VIC,D,Y,Professional,Country,Provincial,Showers,Heavy,8285535.55
5138406,29-AUG-16 Wodonga,Wodonga,2016-08-29 00:00:00.000,VIC,D,Y,Professional,Country,Provincial,Overcast,Soft,7032336.18
5138437,27-SEP-16 Wangaratta,Wangaratta,2016-09-27 00:00:00.000,VIC,D,Y,Professional,Country,Provincial,Showers,Heavy,5082966.45
5138438,NM- Moir Stks,Moonee Valley,2016-09-30 00:00:00.000,VIC,N,Y,Professional,Metro,Metro,Overcast,Good,40459947.05
5138455,10-OCT-16 Racing.com Park Syn,Racing.com Park Synthetic,2016-10-10 00:00:00.000,VIC,D,Y,Professional,Country,Provincial,Showers,Synthetic,7564994.66
5138456,05-OCT-16 Warrnambol,Warrnambool,2016-10-05 00:00:00.000,VIC,D,Y,Professional,Country,Provincial,Overcast,Heavy,9723010.41
5138470,15-OCT-16 Bendigo,Bendigo,2016-10-15 00:00:00.000,VIC,D,Y,Professional,Country,Provincial,Fine,Good,9433888.51
5138473,15-OCT-16 Wodonga,Wodonga,2016-10-15 00:00:00.000,VIC,D,Y,Professional,Country,Other,Fine,Soft,1883108.37
5138487,Sale Cup,Sale,2016-10-23 00:00:00.000,VIC,D,Y,Professional,Country,Provincial,Showers,Heavy,11166277.94
5138488,27-OCT-16 Wodonga,Wodonga,2016-10-27 00:00:00.000,VIC,D,Y,Professional,Country,Provincial,Fine,Good,7152325.88
5138505,01-NOV-16 Mansfield,Mansfield,2016-11-01 00:00:00.000,VIC,D,N,Picnic,Country,Other,Fine,Good,31621.50
5138506,01-NOV-16 Mildura,Mildura,2016-11-01 00:00:00.000,VIC,D,N,Professional,Country,Other,Fine,Good,31164.50
5138520,08-NOV-16 Mornington,Mornington,2016-11-08 00:00:00.000,VIC,D,Y,Professional,Country,Provincial,Fine,Good,7147168.61
5138523,NM,Moonee Valley,2016-11-11 00:00:00.000,VIC,N,Y,Professional,Metro,Metro,Fine,Good,16563554.27
5138537,NM,Cranbourne,2016-11-19 00:00:00.000,VIC,N,Y,Professional,Country,Provincial,Fine,Good,6572652.28
5138538,Ballarat Cup,Sportsbet-Ballarat,2016-11-19 00:00:00.000,VIC,D,Y,Professional,Metro,Metro,Fine,Good,44756586.72
5138555,Port Fairy Cup,Warrnambool,2016-12-01 00:00:00.000,VIC,D,Y,Professional,Country,Provincial,Fine,Good,7210560.39
5138556,NM,Moonee Valley,2016-12-02 00:00:00.000,VIC,N,Y,Professional,Metro,Metro,Fine,Good,16314247.19
5138570,10-DEC-16 Stawell,Stawell,2016-12-10 00:00:00.000,VIC,D,Y,Professional,Country,Provincial,Fine,Good,5510188.33
5138573,10-DEC-16 Flemington,Flemington,2016-12-10 00:00:00.000,VIC,D,Y,Professional,Metro,Metro,Overcast,Good,46143303.66
5138587,18-DEC-16 Horsham,Horsham,2016-12-18 00:00:00.000,VIC,D,Y,Professional,Country,Provincial,Fine,Good,5695309.53
5138588,19-DEC-16 Echuca,Echuca,2016-12-19 00:00:00.000,VIC,D,Y,Professional,Country,Provincial,Fine,Good,8609073.30
5138605,31-DEC-16 Echuca,Echuca,2016-12-31 00:00:00.000,VIC,D,Y,Professional,Country,Provincial,Fine,Good,10203049.05
5139809,24-OCT-16 Benalla,Benalla,2016-10-24 00:00:00.000,VIC,D,Y,Professional,Country,Provincial,Fine,Good,7204974.04
5139810,15-NOV-16 Sale,Sale,2016-11-15 00:00:00.000,VIC,D,Y,Professional,Country,Provincial,Overcast,Soft,5899080.23
5142549,09-JUN-16 Racing.com Park Synthetic,Racing.com Park Synthetic,2016-06-09 00:00:00.000,VIC,D,Y,Professional,Country,Provincial,Showers,Synthetic,6562977.23
5142550,14-JUN-16 Wodonga,Wodonga,2016-06-14 00:00:00.000,VIC,D,Y,Professional,Country,Provincial,Fine,Soft,3881653.93
5137156,09-APR-16 Woolamai,Woolamai,2016-04-09 00:00:00.000,VIC,D,N,Picnic,Country,Other,Fine,Good,63727.14
5138383,Murray Mallee Distance Series Final,Swan Hill,2016-08-08 00:00:00.000,VIC,D,Y,Professional,Country,Provincial,Fine,Soft,6176222.99
5138385,Sandown,Ladbrokes Park Hillside,2016-08-10 00:00:00.000,VIC,D,Y,Professional,Metro,Metro,Overcast,Good,12307804.48
5138392,Synthetic,Racing.com Park Synthetic,2016-08-16 00:00:00.000,VIC,D,Y,Professional,Country,Provincial,Fine,Synthetic,7482874.34
5138394,18-AUG-16 Sale,Sale,2016-08-18 00:00:00.000,VIC,D,Y,Professional,Country,Provincial,Fine,Soft,10264813.82
5138419,Synthetic,bet365 Geelong Synthetic,2016-09-09 00:00:00.000,VIC,D,Y,Professional,Country,Provincial,Showers,Synthetic,8157427.64
5138424,20-SEP-16 Echuca,Echuca,2016-09-20 00:00:00.000,VIC,D,Y,Professional,Country,Provincial,Showers,Heavy,6219758.03
5138426,15-SEP-16 Pakenham Synthetic,Racing.com Park Synthetic,2016-09-15 00:00:00.000,VIC,D,Y,Professional,Country,Provincial,Showers,Synthetic,7628221.75
5138451,Gunbower Cup,Gunbower,2016-09-30 00:00:00.000,VIC,D,Y,Professional,Country,Other,NULL,NULL,0.00
5138458,NM - Pinker Pinker Plate,Cranbourne,2016-10-07 00:00:00.000,VIC,N,Y,Professional,Country,Provincial,Fine,Soft,12651070.36
5138460,Return to Turf,Racing.com Park,2016-10-08 00:00:00.000,VIC,D,Y,Professional,Country,Provincial,Fine,Soft,9608355.02
5138483,St Arnaud Cup,St Arnaud,2016-10-22 00:00:00.000,VIC,D,Y,Professional,Country,Other,Fine,Good,4505377.31
5138485,22-OCT-16 Alexandra,Alexandra,2016-10-22 00:00:00.000,VIC,D,N,Picnic,Country,Other,NULL,NULL,0.00
5138492,NM,Moonee Valley,2016-10-28 00:00:00.000,VIC,N,Y,Professional,Metro,Metro,Fine,Good,20688322.45
5138494,Mortlake Cup,Mortlake,2016-10-29 00:00:00.000,VIC,D,Y,Professional,Country,Other,Fine,Soft,7156558.23
5138517,Euroa Cup,Benalla,2016-11-06 00:00:00.000,VIC,D,Y,Professional,Country,Provincial,Fine,Good,5687798.97
5138519,07-NOV-16 Swan Hill,Swan Hill,2016-11-07 00:00:00.000,VIC,D,Y,Professional,Country,Provincial,Fine,Good,7257113.83
5138524,11-NOV-16 Moe,Moe,2016-11-11 00:00:00.000,VIC,D,Y,Professional,Country,Provincial,Fine,Good,7583124.83
5138526,Zipping Classic - Sandown,Ladbrokes Park Hillside,2016-11-12 00:00:00.000,VIC,D,Y,Professional,Metro,Metro,Showers,Good,69973217.20
5138549,26-NOV-16 Moonee Valley,Moonee Valley,2016-11-26 00:00:00.000,VIC,D,Y,Professional,Metro,Metro,Overcast,Good,42734434.72
5138551,04-DEC-16 Sale,Sale,2016-12-04 00:00:00.000,VIC,D,Y,Professional,Country,Provincial,Fine,Good,5966890.74
5138558,03-DEC-16 Benalla,Benalla,2016-12-03 00:00:00.000,VIC,D,Y,Professional,Country,Provincial,Hot,Good,8174302.54
5138560,Pakenham Cup,Racing.com Park,2016-12-03 00:00:00.000,VIC,D,Y,Professional,Metro,Metro,Fine,Good,34604787.13
5138583,17-DEC-16 Colac,Colac,2016-12-17 00:00:00.000,VIC,D,Y,Professional,Country,Provincial,Showers,Good,4826881.81
5138585,Twilight Meeting,Wangaratta,2016-12-17 00:00:00.000,VIC,D,Y,Professional,Country,Provincial,Fine,Good,5184214.02
5138592,26-DEC-16 Wodonga,Wodonga,2016-12-26 00:00:00.000,VIC,D,N,Professional,Country,Other,Hot,Good,70906.38
5138594,Boxing Day - Caulfield,Caulfield,2016-12-26 00:00:00.000,VIC,D,Y,Professional,Metro,Metro,Overcast,Good,30977546.35
5139730,NM,Racing.com Park,2016-10-20 00:00:00.000,VIC,N,Y,Professional,Country,Provincial,Windy,Soft,11127588.38
5139989,04-NOV-16 Sale,Sale,2016-11-04 00:00:00.000,VIC,D,Y,Professional,Country,Provincial,Fine,Good,7660597.29
867328,01-JAN-16 Mornington,Mornington,2016-01-01 00:00:00.000,VIC,D,Y,Professional,Country,Provincial,Fine,Good,5784820.36
867339,03-JAN-16 Geelong,bet365 Geelong,2016-01-03 00:00:00.000,VIC,D,Y,Professional,Country,Provincial,Showers,Good,11891302.18
867346,Caulfield,Caulfield,2016-01-09 00:00:00.000,VIC,D,Y,Professional,Metro,Metro,Fine,Good,29353928.92
867353,10-JAN-16 Mornington,Mornington,2016-01-10 00:00:00.000,VIC,D,Y,Professional,Country,Provincial,Fine,Good,6165752.31
867371,Australia Stakes,Moonee Valley,2016-01-23 00:00:00.000,VIC,D,Y,Professional,Metro,Metro,Overcast,Soft,41392087.36
867378,27-JAN-16 Sportsbet-Ballarat,Sportsbet-Ballarat,2016-01-27 00:00:00.000,VIC,D,Y,Professional,Country,Provincial,Stormy,Good,8358766.53
867389,02-FEB-16 Sportsbet-Ballarat,Sportsbet-Ballarat,2016-02-02 00:00:00.000,VIC,D,Y,Professional,Country,Provincial,Fine,Good,6364714.38
867396,08-FEB-16 Tatura,Tatura,2016-02-08 00:00:00.000,VIC,D,Y,Professional,Country,Provincial,Hot,Good,4836918.47
867403,13-FEB-16 Buchan,Buchan,2016-02-13 00:00:00.000,VIC,D,N,Picnic,Country,Other,Hot,Good,45226.48
867414,20-FEB-16 Wodonga,Wodonga,2016-02-20 00:00:00.000,VIC,D,Y,Professional,Country,Provincial,Hot,Good,5009715.31
867421,24-FEB-16 Ladbrokes Park Hillside,Ladbrokes Park Hillside,2016-02-24 00:00:00.000,VIC,D,Y,Professional,Metro,Metro,Overcast,Good,12391457.22
867439,Edenhope Cup,Edenhope,2016-03-12 00:00:00.000,VIC,D,Y,Professional,Country,Provincial,Fine,Good,4349955.69
867446,Wangaratta Cup,Wangaratta,2016-03-06 00:00:00.000,VIC,D,Y,Professional,Country,Provincial,Hot,Good,3621835.18
867453,Yarra Valley Cup,Yarra Valley,2016-03-20 00:00:00.000,VIC,D,Y,Professional,Country,Provincial,Fine,Heavy,7963631.57
867478,30-MAR-16 Bendigo,Bendigo,2016-03-30 00:00:00.000,VIC,D,Y,Professional,Country,Provincial,Fine,Good,10703239.13
867489,06-APR-16 Ladbrokes Park Hillside,Ladbrokes Park Hillside,2016-04-06 00:00:00.000,VIC,D,Y,Professional,Metro,Metro,Raining,Soft,11277273.67
867496,07-APR-16 Kyneton,bet365 Park Kyneton,2016-04-07 00:00:00.000,VIC,D,Y,Professional,Country,Provincial,Fine,Good,6794931.64
867503,14-APR-16 Wangaratta,Wangaratta,2016-04-14 00:00:00.000,VIC,D,Y,Professional,Country,Provincial,Fine,Good,14736.76
867514,25-APR-16 Moe,Moe,2016-04-25 00:00:00.000,VIC,D,Y,Professional,Country,Provincial,Fine,Soft,4745915.89
867521,01-MAY-16 Geelong,bet365 Geelong,2016-05-01 00:00:00.000,VIC,D,Y,Professional,Country,Provincial,Showers,Soft,8421331.17
867528,02-MAY-16 Mornington,Mornington,2016-05-02 00:00:00.000,VIC,D,Y,Professional,Country,Provincial,Windy,Soft,6170077.98
867539,11-MAY-16 Ladbrokes Park Lakeside,Ladbrokes Park Lakeside,2016-05-11 00:00:00.000,VIC,D,Y,Professional,Metro,Metro,Showers,Soft,12286123.79
867553,Andrew Ramsden Stks,Flemington,2016-05-21 00:00:00.000,VIC,D,Y,Professional,Metro,Metro,Fine,Good,32988134.19
867564,07-MAY-16 Horsham,Horsham,2016-05-07 00:00:00.000,VIC,D,Y,Professional,Country,Provincial,Fine,Good,3647413.55
867571,1st Day - Golden Topaz Hcp,Swan Hill,2016-06-10 00:00:00.000,VIC,D,Y,Professional,Country,Provincial,Overcast,Soft,9623467.74
867578,8-JUN-16 Sale,Sale,2016-06-08 00:00:00.000,VIC,D,Y,Professional,Metro,Metro,Overcast,Soft,9073439.20
867589,Synthetic,bet365 Geelong Synthetic,2016-06-17 00:00:00.000,VIC,D,Y,Professional,Country,Provincial,Showers,Synthetic,6965767.61
867603,Synthetic,bet365 Geelong Synthetic,2016-06-28 00:00:00.000,VIC,D,Y,Professional,Country,Provincial,Overcast,Synthetic,6711770.40
867614,10-JUL-16 Warracknabeal,Warracknabeal,2016-07-10 00:00:00.000,VIC,D,Y,Professional,Country,Provincial,Raining,Soft,4562226.96
867621,13-JUL-16 Moonee Valley,Moonee Valley,2016-07-13 00:00:00.000,VIC,D,Y,Professional,Metro,Metro,Windy,Heavy,12114115.29
867628,18-JUL-16 Mildura,Mildura,2016-07-18 00:00:00.000,VIC,D,Y,Professional,Country,Provincial,Fine,Good,6406735.22
867639,21-JUL-16 Sale,Sale,2016-07-21 00:00:00.000,VIC,D,Y,Professional,Country,Provincial,Overcast,Soft,8088074.41
867653,NM- William Reid Stks,Moonee Valley,2016-03-24 00:00:00.000,VIC,N,Y,Professional,Metro,Metro,Overcast,Good,23656893.39
867857,Twilight Meeting,Racing.com Park,2016-03-10 00:00:00.000,VIC,D,Y,Professional,Country,Provincial,Overcast,Good,7719478.16
867871,NM- Synthetic,Racing.com Park Synthetic,2016-05-19 00:00:00.000,VIC,N,Y,Professional,Country,Provincial,Overcast,Synthetic,3338400.23
867882,Synthetic,bet365 Geelong Synthetic,2016-06-24 00:00:00.000,VIC,D,Y,Professional,Country,Provincial,Showers,Synthetic,7648150.91
5138375,01-AUG-16 Echuca,Echuca,2016-08-01 00:00:00.000,VIC,D,Y,Professional,Country,Provincial,Raining,Heavy,2209.43
5138382,03-AUG-16 Sale,Sale,2016-08-03 00:00:00.000,VIC,D,Y,Professional,Country,Provincial,Showers,Heavy,8107394.56
5138400,Synthetic,Racing.com Park Synthetic,2016-08-23 00:00:00.000,VIC,D,Y,Professional,Country,Provincial,Showers,Synthetic,6706641.90
5138407,Synthetic,bet365 Geelong Synthetic,2016-08-30 00:00:00.000,VIC,D,Y,Professional,Country,Provincial,Showers,Synthetic,7955654.86
5138418,08-SEP-16 Mornington,Mornington,2016-09-08 00:00:00.000,VIC,D,Y,Professional,Country,Provincial,Overcast,Good,10095190.34
867340,05-JAN-16 Stony Creek,Stony Creek,2016-01-05 00:00:00.000,VIC,D,Y,Professional,Country,Provincial,Showers,Good,8230818.25
867342,6-JAN-16 Ladbrokes Park Lakeside,Ladbrokes Park Lakeside,2016-01-06 00:00:00.000,VIC,D,Y,Professional,Metro,Metro,Overcast,Good,15398869.60
867357,15-JAN-16 Ararat,Ararat,2016-01-15 00:00:00.000,VIC,D,Y,Professional,Country,Provincial,Fine,Good,7401668.26
867359,Camperdown Cup,Camperdown,2016-01-16 00:00:00.000,VIC,D,Y,Professional,Country,Provincial,Fine,Good,7285613.70
867374,Australia Day - Caulfield,Caulfield,2016-01-26 00:00:00.000,VIC,D,Y,Professional,Metro,Metro,Fine,Good,25953978.47
867376,26-JAN-16 Balnarring,Balnarring,2016-01-26 00:00:00.000,VIC,D,N,Picnic,Country,Other,Overcast,Good,208987.70
867391,05-FEB-16 Mornington,Mornington,2016-02-05 00:00:00.000,VIC,D,Y,Professional,Country,Provincial,Fine,Good,7211001.89
867393,WJ Adams Stks - Caulfield,Caulfield,2016-02-06 00:00:00.000,VIC,D,Y,Professional,Metro,Metro,Fine,Good,39121530.76
867408,18-FEB-16 Kyneton,bet365 Park Kyneton,2016-02-18 00:00:00.000,VIC,D,Y,Professional,Country,Provincial,Fine,Good,5471641.48
867410,23-FEB-16 Bendigo,Bendigo,2016-02-23 00:00:00.000,VIC,D,Y,Professional,Country,Provincial,Hot,Good,5757554.72
867423,NM,Moonee Valley,2016-02-26 00:00:00.000,VIC,N,Y,Professional,Metro,Metro,Fine,Good,18515022.65
867425,Blue Diamond Stks - Caulfield,Caulfield,2016-02-27 00:00:00.000,VIC,D,Y,Professional,Metro,Metro,Fine,Good,69905362.71
867427,27-FEB-16 Yarra Valley,Yarra Valley,2016-02-27 00:00:00.000,VIC,D,Y,Professional,Country,Provincial,Fine,Good,4752449.02
867440,Towong Cup,Towong,2016-03-12 00:00:00.000,VIC,D,Y,Professional,Country,Other,Fine,Good,1492276.01
867442,Stony Creek Cup,Stony Creek,2016-03-13 00:00:00.000,VIC,D,Y,Professional,Country,Provincial,Showers,Soft,5901742.34
867457,16-MAR-16 Ladbrokes Park Lakeside,Ladbrokes Park Lakeside,2016-03-16 00:00:00.000,VIC,D,Y,Professional,Metro,Metro,Fine,Good,12798699.29
867459,11-MAR-16 Donald,Donald,2016-03-11 00:00:00.000,VIC,D,Y,Professional,Country,Provincial,Fine,Good,5561178.98
867476,31-MAR-16 Warrnambool,Warrnambool,2016-03-31 00:00:00.000,VIC,D,Y,Professional,Country,Provincial,Fine,Good,7381982.87
867491,24-APR-16 Ararat,Ararat,2016-04-24 00:00:00.000,VIC,D,Y,Professional,Country,Provincial,Fine,Good,5254955.31
867493,Elmore Cup,Bendigo,2016-04-09 00:00:00.000,VIC,D,Y,Professional,Country,Provincial,Fine,Good,6079039.26
867508,18-APR-16 Mornington,Mornington,2016-04-18 00:00:00.000,VIC,D,Y,Professional,Country,Provincial,Fine,Good,5202742.32
867510,19-APR-16 Sale,Sale,2016-04-19 00:00:00.000,VIC,D,Y,Professional,Country,Provincial,Fine,Good,6023811.73
867525,28-APR-16 Kilmore,bet365 Park Kilmore,2016-04-28 00:00:00.000,VIC,D,Y,Professional,Country,Provincial,Fine,Good,5514686.51
867540,09-MAY-16 Kilmore,bet365 Park Kilmore,2016-05-09 00:00:00.000,VIC,D,Y,Professional,Country,Provincial,Raining,Soft,784.43
867542,NM,Cranbourne,2016-05-13 00:00:00.000,VIC,N,Y,Professional,Country,Provincial,Fine,Soft,8814373.36
867544,Caulfield,Caulfield,2016-05-14 00:00:00.000,VIC,D,Y,Professional,Metro,Metro,Fine,Good,33125324.77
867557,23-MAY-16 Mildura,Mildura,2016-05-23 00:00:00.000,VIC,D,Y,Professional,Country,Provincial,Fine,Good,5564833.05
867559,26-MAY-16 Werribee,Werribee,2016-05-26 00:00:00.000,VIC,D,Y,Professional,Country,Provincial,Showers,Heavy,7710588.88
867574,Apsley Cup,Edenhope,2016-06-12 00:00:00.000,VIC,D,Y,Professional,Country,Provincial,Fine,Heavy,5381411.00
867591,19-JUN-16 Sale,Sale,2016-06-19 00:00:00.000,VIC,D,Y,Professional,Country,Provincial,Overcast,Soft,8540976.84
867593,Synthetic,bet365 Geelong Synthetic,2016-06-20 00:00:00.000,VIC,D,Y,Professional,Country,Provincial,Showers,Synthetic,7549213.41
867608,Caulfield ,Caulfield,2016-07-02 00:00:00.000,VIC,D,Y,Professional,Metro,Metro,Overcast,Soft,36310605.83
867610,03-JUL-16 Casterton,Casterton,2016-07-03 00:00:00.000,VIC,D,Y,Professional,Country,Provincial,Showers,Heavy,3776010.00
867625,23-JUL-16 Flemington,Flemington,2016-07-23 00:00:00.000,VIC,D,Y,Professional,Metro,Metro,Overcast,Soft,40601160.24
867627,Synthetic,Racing.com Park Synthetic,2016-07-17 00:00:00.000,VIC,D,Y,Professional,Country,Provincial,Fine,Soft,7498506.51
867859,29-MAR-16 Stony Creek,Stony Creek,2016-03-29 00:00:00.000,VIC,D,Y,Professional,Country,Provincial,Showers,Good,6965561.69
867861,NM,Cranbourne,2016-04-01 00:00:00.000,VIC,N,Y,Professional,Country,Provincial,Fine,Good,9891826.95
867876,Synthetic,bet365 Geelong Synthetic,2016-06-07 00:00:00.000,VIC,D,Y,Professional,Country,Provincial,Overcast,Synthetic,8451753.62
867878,Monash Stks - Caulfield,Caulfield,2016-07-16 00:00:00.000,VIC,D,Y,Professional,Metro,Metro,Fine,Good,42708367.34
867942,21-MAR-16 Wodonga,Wodonga,2016-03-21 00:00:00.000,VIC,D,Y,Professional,Country,Provincial,Fine,Good,4545372.34
5133515,Mildura Cup,Mildura,2016-03-13 00:00:00.000,VIC,D,Y,Professional,Country,Provincial,Hot,Good,6704409.54
5138380,Aurie's Star,Flemington,2016-08-06 00:00:00.000,VIC,D,Y,Professional,Metro,Metro,Overcast,Good,42025463.88
867332,01-JAN-16 Terang,Terang,2016-01-01 00:00:00.000,VIC,D,Y,Professional,Country,Other,Overcast,Good,3319633.64
867335,02-JAN-16 Moonee Valley,Moonee Valley,2016-01-02 00:00:00.000,VIC,D,Y,Professional,Metro,Metro,Fine,Good,32467037.31
867349,11-JAN-16 Benalla,Benalla,2016-01-11 00:00:00.000,VIC,D,Y,Professional,Country,Provincial,Fine,Good,5639488.43
867350,Koroit Cup,Warrnambool,2016-01-10 00:00:00.000,VIC,D,Y,Professional,Country,Provincial,Fine,Good,9227946.85
867367,22-JAN-16 Colac,Colac,2016-01-22 00:00:00.000,VIC,D,Y,Professional,Country,Provincial,Raining,Soft,4416103.72
867368,NM,Cranbourne,2016-01-22 00:00:00.000,VIC,N,Y,Professional,Country,Provincial,Overcast,Soft,9485502.56
867382,Woodend Cup,bet365 Park Kyneton,2016-01-30 00:00:00.000,VIC,D,Y,Professional,Country,Provincial,Fine,Good,6473759.48
867385,31-JAN-16 Geelong,bet365 Geelong,2016-01-31 00:00:00.000,VIC,D,Y,Professional,Country,Provincial,Showers,Soft,6959921.21
867399,11-FEB-16 Sportsbet-Ballarat,Sportsbet-Ballarat,2016-02-11 00:00:00.000,VIC,D,Y,Professional,Country,Provincial,Fine,Good,6979968.67
867400,NM,Moonee Valley,2016-02-12 00:00:00.000,VIC,N,Y,Professional,Metro,Metro,Fine,Good,14764594.47
867417,21-FEB-16 Sportsbet-Ballarat,Sportsbet-Ballarat,2016-02-21 00:00:00.000,VIC,D,Y,Professional,Country,Provincial,Fine,Good,9400256.01
867432,2-MAR-16 Ladbrokes Park Lakeside,Ladbrokes Park Lakeside,2016-03-02 00:00:00.000,VIC,D,Y,Professional,Metro,Metro,Fine,Good,11741009.17
867435,NM,Cranbourne,2016-03-04 00:00:00.000,VIC,N,Y,Professional,Country,Provincial,Fine,Good,12244205.50
867449,NM,Cranbourne,2016-03-11 00:00:00.000,VIC,N,Y,Professional,Country,Provincial,Fine,Soft,10671880.31
867450,19-MAR-16 Woolamai,Woolamai,2016-03-19 00:00:00.000,VIC,D,N,Picnic,Country,Other,Overcast,Soft,223.87
867467,23-MAR-16 Ladbrokes Park Lakeside,Ladbrokes Park Lakeside,2016-03-23 00:00:00.000,VIC,D,Y,Professional,Metro,Metro,Overcast,Good,11837631.13
867468,22-MAR-16 Sportsbet-Ballarat,Sportsbet-Ballarat,2016-03-22 00:00:00.000,VIC,D,Y,Professional,Country,Provincial,Fine,Good,7144054.94
867485,27-MAR-16 Swifts Creek,Swifts Creek,2016-03-27 00:00:00.000,VIC,D,N,Picnic,Country,Other,Fine,Good,20280.00
867499,13-APR-16 Sportsbet-Ballarat,Sportsbet-Ballarat,2016-04-13 00:00:00.000,VIC,D,Y,Professional,Country,Provincial,Fine,Good,8968314.24
867500,12-APR-16 Geelong,bet365 Geelong,2016-04-12 00:00:00.000,VIC,D,Y,Professional,Country,Provincial,Showers,Good,7753482.57
867532,06-MAY-16 Bendigo,Bendigo,2016-05-06 00:00:00.000,VIC,D,Y,Professional,Country,Provincial,Fine,Good,8720257.30
867535,08-MAY-16 Bairnsdale,Bairnsdale,2016-05-08 00:00:00.000,VIC,D,Y,Professional,Country,Provincial,Showers,Good,4891157.60
867549,18-MAY-16 Sportsbet-Ballarat,Sportsbet-Ballarat,2016-05-18 00:00:00.000,VIC,D,Y,Professional,Country,Provincial,Overcast,Soft,8503880.74
867550,19-MAY-16 Ararat,Ararat,2016-05-19 00:00:00.000,VIC,D,Y,Professional,Country,Provincial,Overcast,Soft,7013770.08
867567,Echuca Cup ,Echuca,2016-05-29 00:00:00.000,VIC,D,Y,Professional,Country,Provincial,Fine,Heavy,6260584.00
867568,Synthetic,bet365 Geelong Synthetic,2016-05-31 00:00:00.000,VIC,D,Y,Professional,Country,Provincial,Fine,Synthetic,6586618.73
867582,11-JUN-16 Flemington,Flemington,2016-06-11 00:00:00.000,VIC,D,Y,Professional,Metro,Metro,Showers,Soft,32717852.98
867599,26-JUN-16 Coleraine,Coleraine,2016-06-26 00:00:00.000,VIC,D,Y,Professional,Country,Provincial,Fine,Soft,4076483.02
867600,23-JUN-16 Bendigo,Bendigo,2016-06-23 00:00:00.000,VIC,D,Y,Professional,Country,Provincial,Showers,Heavy,8655885.04
867632,Synthetic,bet365 Geelong Synthetic,2016-07-22 00:00:00.000,VIC,D,Y,Professional,Country,Provincial,Showers,Synthetic,10217637.81
867635,24-JUL-16 Moe,Moe,2016-07-24 00:00:00.000,VIC,D,Y,Professional,Country,Provincial,Showers,Heavy,6075375.72
867636,25-JUL-16 Swan Hill,Swan Hill,2016-07-25 00:00:00.000,VIC,D,Y,Professional,Country,Provincial,Overcast,Heavy,6566651.53
867667,Caulfield,Caulfield,2016-04-23 00:00:00.000,VIC,D,Y,Professional,Metro,Metro,Overcast,Good,38813670.28
867668,Jack Maher Classic,Wodonga,2016-07-31 00:00:00.000,VIC,D,Y,Professional,Country,Provincial,Showers,Heavy,0.00
867850,25-JAN-16 Werribee,Werribee,2016-01-25 00:00:00.000,VIC,D,Y,Professional,Country,Provincial,Fine,Good,7077524.18
867853,Twilight Meeting,Racing.com Park,2016-02-18 00:00:00.000,VIC,D,Y,Professional,Country,Provincial,Overcast,Good,9218322.92
867867,NM- Synthetic,Racing.com Park Synthetic,2016-04-21 00:00:00.000,VIC,N,Y,Professional,Country,Provincial,Showers,Synthetic,6253594.22
867868,23-APR-16 Kyneton,bet365 Park Kyneton,2016-04-23 00:00:00.000,VIC,D,Y,Professional,Country,Provincial,Fine,Soft,5147666.22
5133038,28-JUL-16 Casterton,Casterton,2016-07-28 00:00:00.000,VIC,D,Y,Professional,Country,Provincial,Showers,Heavy,5633993.02
5133406,02-APR-16 Healesville,Healesville,2016-04-02 00:00:00.000,VIC,D,N,Picnic,Country,Other,Overcast,Good,82213.03
5133556,14-FEB-16 ,Racing.com Park,2016-02-14 00:00:00.000,VIC,D,Y,Professional,Country,Provincial,Overcast,Good,4719697.60
867326,Standish/Bagot,Flemington,2016-01-01 00:00:00.000,VIC,D,Y,Professional,Metro,Metro,Fine,Good,31332968.98
867341,04-JAN-16 Wangaratta,Wangaratta,2016-01-04 00:00:00.000,VIC,D,Y,Professional,Country,Provincial,Showers,Soft,8433544.75
867343,07-JAN-16 Kyneton,bet365 Park Kyneton,2016-01-07 00:00:00.000,VIC,D,Y,Professional,Country,Provincial,Fine,Good,9447143.70
867358,16-JAN-16 Woolamai,Woolamai,2016-01-16 00:00:00.000,VIC,D,N,Picnic,Country,Other,Fine,Good,124272.12
867360,Chester Manifold Stks Day,Flemington,2016-01-16 00:00:00.000,VIC,D,Y,Professional,Metro,Metro,Fine,Good,44942589.65
867373,24-JAN-16 Sale,Sale,2016-01-24 00:00:00.000,VIC,D,Y,Professional,Country,Provincial,Overcast,Good,8734832.66
867375,Hanging Rock Cup,Hanging Rock,2016-01-23 00:00:00.000,VIC,D,Y,Professional,Country,Other,Overcast,Soft,3201353.26
867390,NM,Moonee Valley,2016-02-05 00:00:00.000,VIC,N,Y,Professional,Metro,Metro,Fine,Good,17277609.90
867407,22-FEB-16 Tatura,Tatura,2016-02-22 00:00:00.000,VIC,D,Y,Professional,Country,Provincial,Hot,Good,5882003.29
867409,17-FEB-16 Ladbrokes Park Hillside,Ladbrokes Park Hillside,2016-02-17 00:00:00.000,VIC,D,Y,Professional,Metro,Metro,Showers,Good,11278778.41
867424,26-FEB-16 Kilmore,bet365 Park Kilmore,2016-02-26 00:00:00.000,VIC,D,Y,Professional,Country,Provincial,Fine,Good,5581415.52
867426,28-FEB-16 Yea,Yea,2016-02-28 00:00:00.000,VIC,D,N,Picnic,Country,Other,Fine,Good,56380.31
867443,14-MAR-16 Moonee Valley,Moonee Valley,2016-03-14 00:00:00.000,VIC,D,Y,Professional,Metro,Metro,Overcast,Good,15436620.74
867458,15-MAR-16 Sportsbet-Ballarat,Sportsbet-Ballarat,2016-03-15 00:00:00.000,VIC,D,Y,Professional,Country,Provincial,Fine,Good,6475197.86
867460,NM - Alister Clark Stks,Moonee Valley,2016-03-18 00:00:00.000,VIC,N,Y,Professional,Metro,Metro,Overcast,Soft,15269131.32
867490,05-APR-16 Geelong,bet365 Geelong,2016-04-05 00:00:00.000,VIC,D,Y,Professional,Country,Provincial,Fine,Good,7457136.18
867492,NM,Cranbourne,2016-04-08 00:00:00.000,VIC,N,Y,Professional,Country,Provincial,Fine,Good,8836401.94
867494,09-APR-16 Hillside,Ladbrokes Park Hillside,2016-04-09 00:00:00.000,VIC,D,Y,Professional,Metro,Metro,Overcast,Good,32916735.94
867507,15-APR-16 Werribee,Werribee,2016-04-15 00:00:00.000,VIC,D,Y,Professional,Country,Provincial,Fine,Good,6783282.13
867509,20-APR-16 Ladbrokes Park Lakeside,Ladbrokes Park Lakeside,2016-04-20 00:00:00.000,VIC,D,Y,Professional,Metro,Metro,Fine,Good,11042369.15
867524,Caulfield,Caulfield,2016-04-30 00:00:00.000,VIC,D,Y,Professional,Metro,Metro,Overcast,Good,38723736.06
867526,01-MAY-16 Swan Hill,Swan Hill,2016-05-01 00:00:00.000,VIC,D,Y,Professional,Country,Provincial,Overcast,Soft,3889395.65
867541,Synthetic,bet365 Geelong Synthetic,2016-05-13 00:00:00.000,VIC,D,Y,Professional,Country,Provincial,Fine,Synthetic,6032393.95
867543,14-MAY-16 Donald,Donald,2016-05-14 00:00:00.000,VIC,D,Y,Professional,Country,Provincial,Fine,Soft,5039966.31
867558,Synthetic,Racing.com Park Synthetic,2016-05-24 00:00:00.000,VIC,D,Y,Professional,Country,Provincial,Fine,Synthetic,6063221.62
867560,25-MAY-16 Sale,Sale,2016-05-25 00:00:00.000,VIC,D,Y,Professional,Country,Provincial,Overcast,Good,9026423.48
867575,3rd Day - Swan Hill Cup,Swan Hill,2016-06-12 00:00:00.000,VIC,D,Y,Professional,Country,Provincial,Fine,Soft,10714660.60
867577,Synthetic,Racing.com Park Synthetic,2016-06-05 00:00:00.000,VIC,D,Y,Professional,Country,Provincial,Showers,Synthetic,7726630.12
867592,19-JUN-16 Hamilton,Hamilton,2016-06-19 00:00:00.000,VIC,D,Y,Professional,Country,Provincial,Fine,Heavy,5407741.63
867594,Synthetic,Racing.com Park Synthetic,2016-06-21 00:00:00.000,VIC,D,Y,Professional,Country,Provincial,Showers,Synthetic,10132613.58
867607,02-JUL-16 Donald,Donald,2016-07-02 00:00:00.000,VIC,D,Y,Professional,Country,Provincial,Fine,Heavy,4834727.55
867609,03-JUL-16 Sale,Sale,2016-07-03 00:00:00.000,VIC,D,Y,Professional,Country,Provincial,Overcast,Soft,7208458.07
867611,04-JUL-16 Mildura,Mildura,2016-07-04 00:00:00.000,VIC,D,Y,Professional,Country,Provincial,Showers,Good,6002624.13
867626,Kevin Lafferty Hurdle & Thackeray Steeplechase,Warrnambool,2016-07-10 00:00:00.000,VIC,D,Y,Professional,Country,Provincial,Showers,Heavy,6181494.94
867858,Twilight Meeting,Racing.com Park,2016-03-17 00:00:00.000,VIC,D,Y,Professional,Country,Provincial,Fine,Good,6623007.56
867860,Twilight Meeting,Racing.com Park,2016-03-31 00:00:00.000,VIC,D,Y,Professional,Country,Provincial,Overcast,Good,8847367.20
867875,06-JUN-16 Pakenham Synthetic ,Racing.com Park Synthetic,2016-06-06 00:00:00.000,VIC,D,Y,Professional,Country,Provincial,Showers,Synthetic,6862319.47
867877,17-JUL-16 Wodonga,Wodonga,2016-07-17 00:00:00.000,VIC,D,Y,Professional,Country,Provincial,Fine,Heavy,4950016.62
5133516,04-APR-16 Mildura,Mildura,2016-04-04 00:00:00.000,VIC,D,Y,Professional,Country,Provincial,Fine,Good,5117782.29
5138379,Synthetic,Racing.com Park Synthetic,2016-08-05 00:00:00.000,VIC,D,Y,Professional,Country,Provincial,Fine,Synthetic,10463873.72
5138381,06-AUG-16 Bairnsdale,Bairnsdale,2016-08-06 00:00:00.000,VIC,D,Y,Professional,Country,Provincial,Overcast,Heavy,6220067.48
5138395,19-AUG-16 Mildura,Mildura,2016-08-19 00:00:00.000,VIC,D,Y,Professional,Country,Provincial,Fine,Soft,8433334.18
5138397,28-AUG-16 Cranbourne,Cranbourne,2016-08-28 00:00:00.000,VIC,D,Y,Professional,Country,Provincial,Fine,Soft,11723478.84
5138412,12-SEP-16 Wodonga,Wodonga,2016-09-12 00:00:00.000,VIC,D,Y,Professional,Country,Provincial,Overcast,Heavy,6794606.02
5138414,27-AUG-16 Donald,Donald,2016-08-27 00:00:00.000,VIC,D,Y,Professional,Country,Provincial,Overcast,Soft,6824001.21
5138429,22-SEP-16 Mornington,Mornington,2016-09-22 00:00:00.000,VIC,D,Y,Professional,Country,Provincial,Overcast,Good,11425295.56
5138431,10-SEP-16 Racing.com Park Synthetic,Racing.com Park Synthetic,2016-09-10 00:00:00.000,VIC,D,Y,Professional,Country,Provincial,Showers,Synthetic,8286509.90
5138446,29-SEP-16 Bendigo,Bendigo,2016-09-29 00:00:00.000,VIC,D,Y,Professional,Country,Provincial,Showers,Heavy,8390083.22
5138448,Benalla Cup,Benalla,2016-09-30 00:00:00.000,VIC,D,Y,Professional,Country,Provincial,Raining,Heavy,2364.03
5138463,Cranbourne Cup,Cranbourne,2016-10-09 00:00:00.000,VIC,D,Y,Professional,Country,Provincial,Windy,Good,1291395.73
5138465,11-OCT-16 Wangaratta,Wangaratta,2016-10-11 00:00:00.000,VIC,D,Y,Professional,Country,Provincial,Showers,Heavy,6456155.05
5138478,bet365 Geelong Cup,bet365 Geelong,2016-10-19 00:00:00.000,VIC,D,Y,Professional,Country,Provincial,Fine,Good,29149885.24
5138480,21-OCT-16 Mornington,Mornington,2016-10-21 00:00:00.000,VIC,D,Y,Professional,Country,Provincial,Raining,Good,7831699.65
5138495,Derby Day,Flemington,2016-10-29 00:00:00.000,VIC,D,Y,Professional,Metro,Metro,Fine,Good,176656002.88
5138497,Wyche Cup,Wycheproof,2016-10-29 00:00:00.000,VIC,D,N,Professional,Country,Other,Fine,Good,69117.00
5138514,Ballan Cup,bet365 Geelong,2016-11-05 00:00:00.000,VIC,D,Y,Professional,Country,Provincial,Showers,Good,11046478.60
5138529,Donald Cup,Donald,2016-11-13 00:00:00.000,VIC,D,Y,Professional,Country,Provincial,Showers,Heavy,9119518.08
5138546,Wodonga Cup,Wodonga,2016-11-25 00:00:00.000,VIC,D,Y,Professional,Country,Provincial,Fine,Good,10278507.76
5138548,26-NOV-16 Woolamai,Woolamai,2016-11-26 00:00:00.000,VIC,D,N,Picnic,Country,Other,Fine,Soft,61773.30
5138563,04-DEC-16 bet365 Geelong,bet365 Geelong,2016-12-04 00:00:00.000,VIC,D,Y,Professional,Country,Provincial,Fine,Good,7923637.67
5138565,06-DEC-16 Wangaratta,Wangaratta,2016-12-06 00:00:00.000,VIC,D,Y,Professional,Country,Provincial,Fine,Good,6849955.95
5138580,16-DEC-16 Yarra Valley,Yarra Valley,2016-12-16 00:00:00.000,VIC,D,Y,Professional,Country,Provincial,Overcast,Good,7335321.15
5138582,17-DEC-16 Flemington,Flemington,2016-12-17 00:00:00.000,VIC,D,Y,Professional,Metro,Metro,Overcast,Good,40390251.63
5138595,26-DEC-16 Drouin,Drouin,2016-12-26 00:00:00.000,VIC,D,N,Picnic,Country,Other,Hot,Good,37531.50
5138597,26-DEC-16 bet365 Geelong,bet365 Geelong,2016-12-26 00:00:00.000,VIC,D,Y,Professional,Country,Provincial,Overcast,Good,5881995.76
5139682,29-DEC-16 Yarra Valley,Yarra Valley,2016-12-29 00:00:00.000,VIC,D,Y,Professional,Country,Provincial,Overcast,Good,12360392.24
5139733,NM,Racing.com Park,2016-11-17 00:00:00.000,VIC,N,Y,Professional,Country,Provincial,Fine,Good,10249539.54
5138425,06-SEP-16 Moe,Moe,2016-09-06 00:00:00.000,VIC,D,Y,Professional,Country,Provincial,Fine,Soft,7707501.55
5138432,18-SEP-16 Racing.com Park Synthetic,Racing.com Park Synthetic,2016-09-18 00:00:00.000,VIC,D,Y,Professional,Country,Provincial,Showers,Synthetic,16475059.83
5138450,Murtoa Cup,Murtoa,2016-09-24 00:00:00.000,VIC,D,Y,Professional,Country,Provincial,Fine,Soft,7653422.21
5138457,06-OCT-16 Bendigo,Bendigo,2016-10-06 00:00:00.000,VIC,D,Y,Professional,Country,Provincial,Fine,Heavy,9003915.46
5138461,Manangatang Cup,Manangatang,2016-10-08 00:00:00.000,VIC,D,Y,Professional,Country,Other,Fine,Good,2923996.42
5138468,NM,Cranbourne,2016-10-14 00:00:00.000,VIC,N,Y,Professional,Country,Provincial,Fine,Good,15917548.70
5138475, 16-OCT-16 Echuca ,Echuca,2016-10-16 00:00:00.000,VIC,D,Y,Professional,Country,Provincial,Showers,Good,6929417.15
5138482,Cox Plate,Moonee Valley,2016-10-22 00:00:00.000,VIC,D,Y,Professional,Metro,Metro,Overcast,Soft,131989500.98
5138486,Hamilton Cup,Hamilton,2016-10-23 00:00:00.000,VIC,D,Y,Professional,Country,Provincial,Fine,Heavy,7311521.41
5138493,Horsham Cup,Horsham,2016-10-28 00:00:00.000,VIC,D,Y,Professional,Country,Provincial,Fine,Good,10079148.80
5138500,Peninsula Cup,Mornington,2016-10-30 00:00:00.000,VIC,D,Y,Professional,Country,Provincial,Showers,Good,13590011.34
5138507,01-NOV-16 Bairnsdale,Bairnsdale,2016-11-01 00:00:00.000,VIC,D,N,Professional,Country,Other,Showers,Good,68278.08
5138511,03-NOV-16 Racing.com Park,Racing.com Park,2016-11-03 00:00:00.000,VIC,D,Y,Professional,Country,Provincial,Fine,Soft,6019825.44
5138518,Ararat Cup,Ararat,2016-11-06 00:00:00.000,VIC,D,Y,Professional,Country,Provincial,Overcast,Good,11900441.76
5138525,Dunkeld Cup,Dunkeld,2016-11-12 00:00:00.000,VIC,D,Y,Professional,Country,Provincial,Showers,Soft,6450826.16
5138536,19-NOV-16 Healesville,Healesville,2016-11-19 00:00:00.000,VIC,D,N,Picnic,Country,Other,Fine,Good,122849.10
5138543,24-NOV-16 Bendigo,Bendigo,2016-11-24 00:00:00.000,VIC,D,Y,Professional,Country,Provincial,Fine,Good,9614786.63
5138550,27-NOV-16 Swan Hill,Swan Hill,2016-11-27 00:00:00.000,VIC,D,Y,Professional,Country,Provincial,Fine,Good,5970551.36
5138568,NM,Moonee Valley,2016-12-09 00:00:00.000,VIC,N,Y,Professional,Metro,Metro,Overcast,Good,14419222.07
5138575,Werribee Cup,Werribee,2016-12-11 00:00:00.000,VIC,D,Y,Professional,Country,Provincial,Fine,Good,10140560.95
5138586,18-DEC-16 Bendigo,Bendigo,2016-12-18 00:00:00.000,VIC,D,Y,Professional,Country,Provincial,Fine,Good,9822827.86
5138593,27-DEC-16 Stony Creek,Stony Creek,2016-12-27 00:00:00.000,VIC,D,Y,Professional,Country,Provincial,Showers,Good,5118277.22
5138600,20-DEC-16 Mornington,Mornington,2016-12-20 00:00:00.000,VIC,D,Y,Professional,Country,Provincial,Overcast,Good,7494738.16
5139679,Grand National Steeplechase,Sportsbet-Ballarat,2016-08-21 00:00:00.000,VIC,D,Y,Professional,Country,Provincial,Showers,Heavy,6189227.67
5139804,04-AUG-16 Warrnambool,Warrnambool,2016-08-04 00:00:00.000,VIC,D,Y,Professional,Country,Provincial,Fine,Heavy,8007209.14
5139811,14-NOV-16 Wangaratta,Wangaratta,2016-11-14 00:00:00.000,VIC,D,Y,Professional,Country,Provincial,Overcast,Soft,7591861.91
5139829,26-SEP-16 bet36 Park Kilmore,bet365 Park Kilmore,2016-09-26 00:00:00.000,VIC,D,Y,Professional,Country,Provincial,Overcast,Heavy,5786423.48
5139904,AFL Grand Final,Caulfield,2016-10-01 00:00:00.000,VIC,D,Y,Professional,Metro,Metro,Showers,Good,34427889.98
5141894,19-APR-16 Wodonga,Wodonga,2016-04-19 00:00:00.000,VIC,D,Y,Professional,Country,Provincial,Fine,Good,4517878.67
5138386,11-AUG-16 Cranbourne,Cranbourne,2016-08-11 00:00:00.000,VIC,D,Y,Professional,Country,Provincial,Fine,Soft,9903601.09
5138389,13-AUG-16 Coleraine,Coleraine,2016-08-13 00:00:00.000,VIC,D,Y,Professional,Country,Provincial,Overcast,Soft,4687596.08
5138390,14-AUG-16 Bendigo,Bendigo,2016-08-14 00:00:00.000,VIC,D,Y,Professional,Country,Provincial,Overcast,Soft,10732490.95
5138403,Synthetic,bet365 Geelong Synthetic,2016-08-26 00:00:00.000,VIC,D,Y,Professional,Country,Provincial,Fine,Synthetic,10257028.63
5138404,Memsie Stks - Caulfield,Caulfield,2016-08-27 00:00:00.000,VIC,D,Y,Professional,Metro,Metro,Fine,Good,55408377.08
5138421,Makybe Diva Stks,Flemington,2016-09-10 00:00:00.000,VIC,D,Y,Professional,Metro,Metro,Overcast,Soft,61369328.23
5138422,11-SEP-16 Sale,Sale,2016-09-11 00:00:00.000,VIC,D,Y,Professional,Country,Provincial,Fine,Soft,10946929.99
5138439,17-SEP-16 Racing.com Park Synthetic,Racing.com Park Synthetic,2016-09-17 00:00:00.000,VIC,D,Y,Professional,Country,Provincial,Overcast,Synthetic,8777436.96
5138453,Turnbull Stks ,Flemington,2016-10-02 00:00:00.000,VIC,D,Y,Professional,Metro,Metro,Windy,Good,51506804.05
5138454,03-OCT-16 Echuca,Echuca,2016-10-03 00:00:00.000,VIC,D,Y,Professional,Country,Provincial,Showers,Heavy,7041243.82
5138471,Avoca Cup,Avoca,2016-10-15 00:00:00.000,VIC,D,N,Professional,Country,Other,Overcast,Soft,162324.77
5138472,Caulfield Cup,Caulfield,2016-10-15 00:00:00.000,VIC,D,Y,Professional,Metro,Metro,Fine,Good,130236029.50
5138490,Bendigo Cup,Bendigo,2016-10-26 00:00:00.000,VIC,D,Y,Professional,Country,Provincial,Overcast,Good,21226154.37
5138503,01-NOV-16 Echuca,Echuca,2016-11-01 00:00:00.000,VIC,D,Y,Professional,Country,Provincial,Fine,Good,7748411.36
5138504,Melbourne Cup,Flemington,2016-11-01 00:00:00.000,VIC,D,Y,Professional,Metro,Metro,Overcast,Good,392012508.07
5138521,09-NOV-16 Bendigo,Bendigo,2016-11-09 00:00:00.000,VIC,D,Y,Professional,Country,Provincial,Fine,Good,10548113.89
5138539,bet36 Park Kilmore Cup,bet365 Park Kilmore,2016-11-20 00:00:00.000,VIC,D,Y,Professional,Country,Provincial,Fine,Good,13024976.02
5138553,22-NOV-16 Moe,Moe,2016-11-22 00:00:00.000,VIC,D,Y,Professional,Country,Provincial,Raining,Soft,5938143.39
5138554,Sandown,Ladbrokes Park Hillside,2016-11-23 00:00:00.000,VIC,D,Y,Professional,Metro,Metro,Showers,Soft,11810676.97
5138557,02-DEC-16 Mornington,Mornington,2016-12-02 00:00:00.000,VIC,D,Y,Professional,Country,Provincial,Overcast,Good,7806456.26
5138571,NM,Cranbourne,2016-12-10 00:00:00.000,VIC,N,Y,Professional,Country,Provincial,Fine,Good,5512787.46
5138572,10-DEC-16 Healesville,Healesville,2016-12-10 00:00:00.000,VIC,D,N,Picnic,Country,Other,Overcast,Soft,117179.50
5138589,23-DEC-16 bet36 Park Kyneton,bet365 Park Kyneton,2016-12-23 00:00:00.000,VIC,D,Y,Professional,Country,Provincial,Fine,Good,11607081.09
5138590, 21-DEC-16 Ladbrokes Park Hillside ,Ladbrokes Park Hillside,2016-12-21 00:00:00.000,VIC,D,Y,Professional,Metro,Metro,Fine,Good,14750227.24
5138604,28-DEC-16 Mornington,Mornington,2016-12-28 00:00:00.000,VIC,D,Y,Professional,Country,Provincial,Showers,Good,11320303.92
5139807,05-SEP-16 Benalla,Benalla,2016-09-05 00:00:00.000,VIC,D,Y,Professional,Country,Provincial,Fine,Heavy,7206303.27
5139808,19-SEP-16 Casterton,Casterton,2016-09-19 00:00:00.000,VIC,D,Y,Professional,Country,Provincial,Fine,Heavy,7782021.16
5138396,Mitchell McKenzie Stks,Moonee Valley,2016-08-20 00:00:00.000,VIC,D,Y,Professional,Metro,Metro,Fine,Soft,38802161.34
5138398,Sheep Hills Cup,Warracknabeal,2016-09-03 00:00:00.000,VIC,D,Y,Professional,Country,Provincial,Overcast,Soft,8047357.50
5138411,Dato' Tan Chin Nam Stks,Moonee Valley,2016-09-03 00:00:00.000,VIC,D,Y,Professional,Metro,Metro,Overcast,Good,52978839.89
5138413,04-SEP-16 bet365 Geelong,bet365 Geelong,2016-09-04 00:00:00.000,VIC,D,Y,Professional,Country,Provincial,Fine,Soft,12787031.11
5138428,16-SEP-16 bet365 Geelong,bet365 Geelong Synthetic,2016-09-16 00:00:00.000,VIC,D,Y,Professional,Country,Provincial,Overcast,Synthetic,9015037.70
5138430,Naturalism Stks-Caulfield,Caulfield,2016-09-17 00:00:00.000,VIC,D,Y,Professional,Metro,Metro,Overcast,Soft,57358186.27
5138445,28-SEP-16 Mornington,Mornington,2016-09-28 00:00:00.000,VIC,D,Y,Professional,Country,Provincial,Fine,Good,8686839.40
5138447,NM,Moonee Valley,2016-09-23 00:00:00.000,VIC,N,Y,Professional,Metro,Metro,Fine,Good,19195498.83
5138462,Caulfield Guineas,Caulfield,2016-10-08 00:00:00.000,VIC,D,Y,Professional,Metro,Metro,Fine,Good,93030538.04
5138464,04-OCT-16 Stawell,Stawell,2016-10-04 00:00:00.000,VIC,D,Y,Professional,Country,Provincial,Showers,Heavy,3041.38
5138479,Fillies and Mares Day,Stawell,2016-10-18 00:00:00.000,VIC,D,Y,Professional,Country,Provincial,Overcast,Soft,7371673.38
5138481,NM - Manikato Stks,Moonee Valley,2016-10-21 00:00:00.000,VIC,N,Y,Professional,Metro,Metro,Showers,Good,44339766.37
5138496,29-OCT-16 Healesville,Healesville,2016-10-29 00:00:00.000,VIC,D,N,Picnic,Country,Other,Fine,Heavy,0.00
5138498,29-OCT-16 Traralgon,Traralgon,2016-10-29 00:00:00.000,VIC,D,Y,Professional,Country,Provincial,Fine,Good,7292557.08
5138513,NM,Cranbourne,2016-11-04 00:00:00.000,VIC,N,Y,Professional,Country,Provincial,Fine,Good,11005580.31
5138515,Stakes Day,Flemington,2016-11-05 00:00:00.000,VIC,D,Y,Professional,Metro,Metro,Overcast,Good,122997175.15
5138528,13-NOV-16 bet365 Geelong,bet365 Geelong,2016-11-13 00:00:00.000,VIC,D,Y,Professional,Country,Provincial,Showers,Good,7380659.30
5138530,10-NOV-16 Echuca,Echuca,2016-11-10 00:00:00.000,VIC,D,Y,Professional,Country,Provincial,Fine,Good,8039675.11
5138532,Sandown,Ladbrokes Park Hillside,2016-11-16 00:00:00.000,VIC,D,Y,Professional,Metro,Metro,Overcast,Good,14015089.26
5138545,NM,Cranbourne,2016-11-25 00:00:00.000,VIC,N,Y,Professional,Country,Provincial,Fine,Good,10176760.68
5138547,26-NOV-16 Yarra Valley,Yarra Valley,2016-11-26 00:00:00.000,VIC,D,Y,Professional,Country,Provincial,Overcast,Heavy,5850174.64
5138562,Traralgon Cup,Traralgon,2016-11-27 00:00:00.000,VIC,D,Y,Professional,Country,Provincial,Fine,Good,9127451.01
5138564,05-DEC-16 Terang,Terang,2016-12-05 00:00:00.000,VIC,D,Y,Professional,Country,Provincial,Overcast,Good,9544193.64
5138579,15-DEC-16 bet365 Geelong,bet365 Geelong,2016-12-15 00:00:00.000,VIC,D,Y,Professional,Country,Provincial,Fine,Good,9532345.77
5138581,NM,Moonee Valley,2016-12-16 00:00:00.000,VIC,N,Y,Professional,Metro,Metro,Fine,Good,14933878.93
5138596,Penshurst Cup,Penshurst,2016-12-26 00:00:00.000,VIC,D,Y,Professional,Country,Other,Fine,Good,1351800.88
5138598,Nhill Cup,Nhill,2016-12-26 00:00:00.000,VIC,D,N,Professional,Country,Other,Overcast,Good,35925.50
5138613,24-DEC-16 Ladbrokes Park Hillside ,Ladbrokes Park Hillside,2016-12-24 00:00:00.000,VIC,D,Y,Professional,Metro,Metro,Hot,Good,35138535.20
5139732,NM,Racing.com Park,2016-11-10 00:00:00.000,VIC,N,Y,Professional,Country,Provincial,Fine,Good,9726508.49
5143008,07-AUG-16 Echuca,Echuca,2016-08-07 00:00:00.000,VIC,D,Y,Professional,Country,Provincial,Fine,Heavy,5653856.49
867330,01-JAN-16 Hanging Rock,Hanging Rock,2016-01-01 00:00:00.000,VIC,D,N,Professional,Country,Other,Hot,Good,148476.80
867344,08-JAN-16 Stawell,Stawell,2016-01-08 00:00:00.000,VIC,D,Y,Professional,Country,Provincial,Fine,Good,7804472.88
867355,14-JAN-16 Sale,Sale,2016-01-14 00:00:00.000,VIC,D,Y,Professional,Country,Provincial,Windy,Soft,8074248.05
867362,17-JAN-16 Geelong,bet365 Geelong,2016-01-17 00:00:00.000,VIC,D,Y,Professional,Country,Provincial,Fine,Good,10746168.43
867369,23-JAN-16 Yea,Yea,2016-01-23 00:00:00.000,VIC,D,N,Picnic,Country,Other,Overcast,Soft,102703.36
867380,29-JAN-16 Mornington,Mornington,2016-01-29 00:00:00.000,VIC,D,Y,Professional,Country,Provincial,Showers,Heavy,5390216.68
867387,04-FEB-16 Terang,Terang,2016-02-04 00:00:00.000,VIC,D,Y,Professional,Country,Provincial,Fine,Soft,7723479.65
867394,06-FEB-16 Woolamai,Woolamai,2016-02-06 00:00:00.000,VIC,D,N,Picnic,Country,Other,Fine,Good,126348.33
867405,Marong Cup,Bendigo,2016-02-06 00:00:00.000,VIC,D,Y,Professional,Country,Provincial,Fine,Good,4875503.90
867412,16-FEB-16 Sale,Sale,2016-02-16 00:00:00.000,VIC,D,Y,Professional,Country,Provincial,Overcast,Good,6376890.65
867419,15-FEB-16 Ararat,Ararat,2016-02-15 00:00:00.000,VIC,D,Y,Professional,Country,Provincial,Fine,Good,7234245.49
867430,03-MAR-16 Stawell,Stawell,2016-03-03 00:00:00.000,VIC,D,Y,Professional,Country,Provincial,Fine,Good,4941939.91
867437,12-MAR-16 Hinnomunjie,Hinnomunjie,2016-03-12 00:00:00.000,VIC,D,N,Picnic,Country,Other,Fine,Good,12874.50
867444,13-MAR-16 Balnarring,Balnarring,2016-03-13 00:00:00.000,VIC,D,N,Picnic,Country,Other,Overcast,Good,89544.30
867455,09-MAR-16 Sportsbet-Ballarat,Sportsbet-Ballarat,2016-03-09 00:00:00.000,VIC,D,Y,Professional,Country,Provincial,Hot,Good,8888883.10
867462,05-MAR-16 Colac,Colac,2016-03-05 00:00:00.000,VIC,D,Y,Professional,Country,Provincial,Fine,Good,3797468.07
867480,Kerang Cup,Kerang,2016-03-26 00:00:00.000,VIC,D,Y,Professional,Country,Other,Fine,Good,2867640.44
867487,28-MAR-16 Ladbrokes Park Hillside,Ladbrokes Park Hillside,2016-03-28 00:00:00.000,VIC,D,Y,Professional,Metro,Metro,Overcast,Good,17905370.00
867498,11-APR-16 Hamilton,Hamilton,2016-04-11 00:00:00.000,VIC,D,Y,Professional,Country,Provincial,Overcast,Soft,5418860.32
867505,Terang Cup,Terang,2016-04-17 00:00:00.000,VIC,D,Y,Professional,Country,Provincial,Overcast,Good,8283567.28
867512,NM,Cranbourne,2016-04-22 00:00:00.000,VIC,N,Y,Professional,Country,Provincial,Fine,Soft,9522096.68
867523,NM,Cranbourne,2016-04-29 00:00:00.000,VIC,N,Y,Professional,Country,Provincial,Overcast,Soft,9141085.79
867530,2nd Day- Wangoom,Warrnambool,2016-05-04 00:00:00.000,VIC,D,Y,Professional,Country,Provincial,Overcast,Heavy,17478358.01
867537,12-MAY-16 Werribee,Werribee,2016-05-12 00:00:00.000,VIC,D,Y,Professional,Country,Provincial,Fine,Soft,6728805.28
867548,Synthetic,bet365 Geelong Synthetic,2016-05-17 00:00:00.000,VIC,D,Y,Professional,Country,Provincial,Overcast,Synthetic,6682836.53
867555,Casterton Cup,Casterton,2016-05-22 00:00:00.000,VIC,D,Y,Professional,Country,Provincial,Overcast,Soft,4650553.72
867562,NM,Cranbourne,2016-05-27 00:00:00.000,VIC,N,Y,Professional,Country,Provincial,Overcast,Heavy,9726466.98
867573,2nd Day,Swan Hill,2016-06-11 00:00:00.000,VIC,D,Y,Professional,Country,Provincial,Fine,Soft,4936846.32
867587,15-JUN-16 Ladbrokes Park Hillside,Ladbrokes Park Hillside,2016-06-15 00:00:00.000,VIC,D,Y,Professional,Metro,Metro,Fine,Soft,10302450.28
867598,David Bourke Provincial Plate,Flemington,2016-06-25 00:00:00.000,VIC,D,Y,Professional,Metro,Metro,Overcast,Soft,35212624.34
867605,30-JUN-16 Bendigo ,Bendigo,2016-06-30 00:00:00.000,VIC,D,Y,Professional,Country,Provincial,Showers,Heavy,7193289.13
867612,Synthetic,bet365 Geelong Synthetic,2016-07-05 00:00:00.000,VIC,D,Y,Professional,Country,Provincial,Raining,Synthetic,6648441.72
867623,Synthetic,Racing.com Park Synthetic,2016-07-08 00:00:00.000,VIC,D,Y,Professional,Country,Provincial,Showers,Synthetic,10355116.32
867630,20-JUL-16 Ladbrokes Park Lakeside,Ladbrokes Park Lakeside,2016-07-20 00:00:00.000,VIC,D,Y,Professional,Metro,Metro,Fine,Good,1382961.41
867637,Synthetic,Racing.com Park Synthetic,2016-07-26 00:00:00.000,VIC,D,Y,Professional,Country,Provincial,Showers,Synthetic,8248836.47
867655,05-JUN-16 Warrnambool,Warrnambool,2016-06-05 00:00:00.000,VIC,D,Y,Professional,Country,Provincial,Showers,Heavy,5688612.87
867837,18-JAN-16 Mornington,Mornington,2016-01-18 00:00:00.000,VIC,D,Y,Professional,Country,Provincial,Hot,Good,7014056.84
867855,Twilight Meeting,Racing.com Park,2016-03-03 00:00:00.000,VIC,D,Y,Professional,Country,Provincial,Fine,Good,8577161.03
867862,03-APR-16 Sportsbet-Ballarat,Sportsbet-Ballarat,2016-04-03 00:00:00.000,VIC,D,Y,Professional,Country,Provincial,Fine,Good,8391139.23
867873,NM- Synthetic,Racing.com Park Synthetic,2016-05-26 00:00:00.000,VIC,N,Y,Professional,Country,Provincial,Raining,Synthetic,8397312.85
5138377,Sandown- Grand National Hurdle,Ladbrokes Park Lakeside,2016-08-07 00:00:00.000,VIC,D,Y,Professional,Metro,Metro,Fine,Soft,12385445.47
5138384,Synthetic,bet365 Geelong Synthetic,2016-08-09 00:00:00.000,VIC,D,Y,Professional,Country,Provincial,Showers,Synthetic,7817107.60
5138391,Murray Mallee Sprint Series Final,Echuca,2016-08-22 00:00:00.000,VIC,D,Y,Professional,Country,Provincial,Overcast,Heavy,7733415.73
5138402,20-AUG-16 Horsham,Horsham,2016-08-20 00:00:00.000,VIC,D,Y,Professional,Country,Provincial,Showers,Heavy,648.78
5138409,Synthetic,Racing.com Park Synthetic,2016-09-01 00:00:00.000,VIC,D,Y,Professional,Country,Provincial,Showers,Synthetic,8804024.88
5138416,13-SEP-16 Swan Hill,Swan Hill,2016-09-13 00:00:00.000,VIC,D,Y,Professional,Country,Provincial,Overcast,Heavy,5338615.23
5138427,14-SEP-16 Racing.com Park Synthetic,Racing.com Park Synthetic,2016-09-14 00:00:00.000,VIC,D,Y,Professional,Country,Provincial,Showers,Synthetic,7465889.49
5138441,Coleraine Cup,Coleraine,2016-09-25 00:00:00.000,VIC,D,Y,Professional,Country,Provincial,Fine,Soft,6021143.19
5138452,Bairnsdale Cup,Bairnsdale,2016-10-02 00:00:00.000,VIC,D,Y,Professional,Country,Provincial,Fine,Soft,9102790.44
5138459,07-OCT-16 Hamilton,Hamilton,2016-10-07 00:00:00.000,VIC,D,Y,Professional,Country,Provincial,Fine,Heavy,0.00
5138466,Blue Sapphire- Caulfied,Caulfield,2016-10-12 00:00:00.000,VIC,D,Y,Professional,Metro,Metro,Overcast,Good,30490114.23
5138477,20-OCT-16 Swan Hill,Swan Hill,2016-10-20 00:00:00.000,VIC,D,Y,Professional,Country,Provincial,Fine,Good,9245055.49
5138484,22-OCT-16 Yarra Valley,Yarra Valley,2016-10-22 00:00:00.000,VIC,D,Y,Professional,Country,Provincial,Showers,Heavy,546.72
5138491,25-OCT-16 Cranbourne,Cranbourne,2016-10-25 00:00:00.000,VIC,D,Y,Professional,Country,Provincial,Fine,Good,8723792.43
5138502,01-NOV-16 Wangaratta,Wangaratta,2016-11-01 00:00:00.000,VIC,D,N,Professional,Country,Other,Overcast,Good,45442.00
5138509,VRC Oaks,Flemington,2016-11-03 00:00:00.000,VIC,D,Y,Professional,Metro,Metro,Fine,Good,103068018.37
5138516,05-NOV-16 Balnarring,Balnarring,2016-11-05 00:00:00.000,VIC,D,N,Picnic,Country,Other,Showers,Good,67827.50
5138527,12-NOV-16 Yea,Yea,2016-11-12 00:00:00.000,VIC,D,N,Picnic,Country,Other,Showers,Soft,57618.99
5138534,NM,Moonee Valley,2016-11-18 00:00:00.000,VIC,N,Y,Professional,Metro,Metro,Overcast,Good,18105644.06
5138541,17-NOV-16 Warrnambool,Warrnambool,2016-11-17 00:00:00.000,VIC,D,Y,Professional,Country,Provincial,Fine,Good,10083829.92
5138552,28-NOV-16 Hamilton,Hamilton,2016-11-28 00:00:00.000,VIC,D,Y,Professional,Country,Provincial,Fine,Good,6990844.33
5138559,03-DEC-16 Balnarring,Balnarring,2016-12-03 00:00:00.000,VIC,D,N,Picnic,Country,Other,Fine,Good,145860.05
5138566, 14-DEC-16 Mornington,Mornington,2016-12-14 00:00:00.000,VIC,D,Y,Professional,Metro,Metro,Overcast,Good,9824953.49
5138584,17-DEC-16 Yea,Yea,2016-12-17 00:00:00.000,VIC,D,N,Picnic,Country,Other,Fine,Good,49640.14
5138591,22-DEC-16 Sale,Sale,2016-12-22 00:00:00.000,VIC,D,Y,Professional,Country,Provincial,Fine,Good,10719565.73
5139681,31-DEC-16 Moonee Valley,Moonee Valley,2016-12-31 00:00:00.000,VIC,D,Y,Professional,Metro,Metro,Fine,Good,26563992.66
5139731,NM,Racing.com Park,2016-10-27 00:00:00.000,VIC,N,Y,Professional,Country,Provincial,Overcast,Soft,10690697.12
5139806,Sandown ,Ladbrokes Park Lakeside,2016-09-07 00:00:00.000,VIC,D,Y,Professional,Metro,Metro,Fine,Good,4223612.49
5139813,NM,Cranbourne,2016-12-23 00:00:00.000,VIC,N,Y,Professional,Country,Provincial,Fine,Good,11824143.51
5142739,16-JUL-16 Echuca,Echuca,2016-07-16 00:00:00.000,VIC,D,Y,Professional,Country,Provincial,Fine,Heavy,4150932.20
867329,Burrumbeet Cup,Burrumbeet,2016-01-01 00:00:00.000,VIC,D,N,Professional,Country,Other,Overcast,Good,157397.18
867331,01-JAN-16 Merton,Merton,2016-01-01 00:00:00.000,VIC,D,N,Picnic,Country,Other,Fine,Good,37874.44
867336,02-JAN-16 Dederang,Dederang,2016-01-02 00:00:00.000,VIC,D,N,Picnic,Country,Other,Fine,Good,67077.24
867338,10-JAN-16 Alexandra,Alexandra,2016-01-10 00:00:00.000,VIC,D,N,Picnic,Country,Other,Fine,Good,31598.88
867361,21-JAN-16 Wangaratta,Wangaratta,2016-01-21 00:00:00.000,VIC,D,Y,Professional,Country,Provincial,Hot,Good,7065462.31
867370,23-JAN-16 Yarra Valley,Yarra Valley,2016-01-23 00:00:00.000,VIC,D,Y,Professional,Country,Provincial,Overcast,Soft,4900559.51
867372,Great Western Cup,Great Western,2016-01-24 00:00:00.000,VIC,D,Y,Professional,Country,Other,Fine,Soft,3290471.89
867395,Sale Quality,Sale,2016-02-07 00:00:00.000,VIC,D,Y,Professional,Country,Provincial,Fine,Good,8842908.53
867397,09-FEB-16 Stony Creek,Stony Creek,2016-02-09 00:00:00.000,VIC,D,Y,Professional,Country,Provincial,Fine,Good,5758165.33
867404,13-FEB-16 Yarra Valley,Yarra Valley,2016-02-13 00:00:00.000,VIC,D,Y,Professional,Country,Provincial,Hot,Good,5165091.68
867406,Colac Cup,Colac,2016-02-14 00:00:00.000,VIC,D,Y,Professional,Country,Provincial,Showers,Good,7997518.41
867429,28-FEB-16 Sale,Sale,2016-02-28 00:00:00.000,VIC,D,Y,Professional,Country,Provincial,Fine,Good,9445911.02
867431,29-FEB-16 Terang,Terang,2016-02-29 00:00:00.000,VIC,D,Y,Professional,Country,Provincial,Fine,Good,5799831.65
867436,Australian Guineas ,Flemington,2016-03-05 00:00:00.000,VIC,D,Y,Professional,Metro,Metro,Fine,Good,60146204.68
867461,Golden Mile Day,Bendigo,2016-03-19 00:00:00.000,VIC,D,Y,Professional,Metro,Metro,Fine,Soft,29784652.02
867463,18-MAR-16 Kyneton,bet365 Park Kyneton,2016-03-18 00:00:00.000,VIC,D,Y,Professional,Country,Provincial,Showers,Good,1507.93
867472,Caulfield- Easter Cup,Caulfield,2016-03-26 00:00:00.000,VIC,D,Y,Professional,Metro,Metro,Overcast,Good,40136395.97
867495,Turf,Racing.com Park,2016-04-10 00:00:00.000,VIC,D,Y,Professional,Country,Provincial,Overcast,Good,7768846.87
867497,16-APR-16 Moe,Moe,2016-04-16 00:00:00.000,VIC,D,Y,Professional,Country,Provincial,Overcast,Soft,3960949.77
867504,Anniversary Vase - Caulfield,Caulfield,2016-04-16 00:00:00.000,VIC,D,Y,Professional,Metro,Metro,Overcast,Good,42121238.39
867506,17-APR-16 Synthetic,Racing.com Park Synthetic,2016-04-17 00:00:00.000,VIC,D,Y,Professional,Country,Provincial,Fine,Synthetic,5253906.45
867529,1st Day ,Warrnambool,2016-05-03 00:00:00.000,VIC,D,Y,Professional,Country,Provincial,Windy,Heavy,14323654.11
867531,3rd Day- Grand Annual - W/bool Cup,Warrnambool,2016-05-05 00:00:00.000,VIC,D,Y,Professional,Country,Provincial,Fine,Heavy,19557868.61
867536,08-MAY-16 Sportsbet-Ballarat,Sportsbet-Ballarat,2016-05-08 00:00:00.000,VIC,D,Y,Professional,Country,Provincial,Showers,Good,8361814.47
867538,Synthetic,bet365 Geelong Synthetic,2016-05-10 00:00:00.000,VIC,D,Y,Professional,Country,Provincial,Showers,Synthetic,5863003.18
867561,Synthetic,bet365 Geelong Synthetic,2016-05-27 00:00:00.000,VIC,D,Y,Professional,Country,Provincial,Fine,Synthetic,6680572.12
867563,Aust Hurdle & Steeple- Sandown,Ladbrokes Park Lakeside,2016-05-28 00:00:00.000,VIC,D,Y,Professional,Metro,Metro,Showers,Soft,28453233.22
867565,30-MAY-16 Hamilton,Hamilton,2016-05-30 00:00:00.000,VIC,D,Y,Professional,Country,Provincial,Fine,Heavy,4670323.24
867570,01-JUN-16 Sportsbet-Ballarat,Sportsbet-Ballarat,2016-06-01 00:00:00.000,VIC,D,Y,Professional,Country,Provincial,Fine,Soft,8448544.27
867572,04-JUN-16 Sandown Hillside ,Ladbrokes Park Hillside,2016-06-04 00:00:00.000,VIC,D,Y,Professional,Metro,Metro,Showers,Soft,34895799.38
867595,22-JUN-16 Racing.com Park Synthetic,Racing.com Park Synthetic,2016-06-22 00:00:00.000,VIC,D,Y,Professional,Country,Provincial,Overcast,Synthetic,7804037.19
867597,Synthetic,Racing.com Park Synthetic,2016-06-26 00:00:00.000,VIC,D,Y,Professional,Country,Provincial,Overcast,Synthetic,7186912.25
867604,29-JUN-16 Ladbrokes Park Hillside,Ladbrokes Park Hillside,2016-06-29 00:00:00.000,VIC,D,Y,Professional,Metro,Metro,Fine,Heavy,10720813.81
867606,Synthetic,Racing.com Park Synthetic,2016-07-01 00:00:00.000,VIC,D,Y,Professional,Country,Provincial,Showers,Synthetic,9286854.25
867629,Synthetic,Racing.com Park Synthetic,2016-07-19 00:00:00.000,VIC,D,Y,Professional,Country,Provincial,Showers,Synthetic,9688155.02
867631,Mosstrooper Steeplechase,Bendigo,2016-07-24 00:00:00.000,VIC,D,Y,Professional,Country,Provincial,Showers,Heavy,6844503.16
867638,27-JUL-16 Ladbrokes Park Lakeside,Ladbrokes Park Lakeside,2016-07-27 00:00:00.000,VIC,D,Y,Professional,Metro,Metro,Showers,Heavy,15151811.16
867640,Synthetic,bet365 Geelong Synthetic,2016-07-29 00:00:00.000,VIC,D,Y,Professional,Country,Provincial,Showers,Synthetic,9085086.51
867838,01-APR-16 Echuca,Echuca,2016-04-01 00:00:00.000,VIC,D,Y,Professional,Country,Provincial,Fine,Good,7266880.94
867865,NM- Turf,Racing.com Park,2016-04-07 00:00:00.000,VIC,N,Y,Professional,Country,Provincial,Fine,Soft,7976842.37
867874,Synthetic,bet365 Geelong Synthetic,2016-06-03 00:00:00.000,VIC,D,Y,Professional,Country,Provincial,Fine,Synthetic,8460399.61
5138376,02-AUG-16 Warracknabeal,Warracknabeal,2016-08-02 00:00:00.000,VIC,D,Y,Professional,Country,Provincial,Fine,Heavy,7066271.49
5138399,15-AUG-16 Wangaratta,Wangaratta,2016-08-15 00:00:00.000,VIC,D,Y,Professional,Country,Provincial,Fine,Soft,5730587.08
5138401,Sandown,Ladbrokes Park Hillside,2016-08-24 00:00:00.000,VIC,D,Y,Professional,Metro,Metro,Overcast,Soft,14677602.29
5138408,Sandown,Ladbrokes Park Hillside,2016-08-31 00:00:00.000,VIC,D,Y,Professional,Metro,Metro,Stormy,Soft,12198072.29
5138410,02-SEP-16 Bendigo,Bendigo,2016-09-02 00:00:00.000,VIC,D,Y,Professional,Country,Provincial,Fine,Soft,8043915.04
5138433,11-SEP-16 Casterton,Casterton,2016-09-11 00:00:00.000,VIC,D,Y,Professional,Country,Provincial,Showers,Heavy,2176.11
5138435,21-SEP-16 Sale,Sale,2016-09-21 00:00:00.000,VIC,D,Y,Professional,Country,Provincial,Raining,Good,12401126.48
5138442,25-SEP-16 bet365 Geelong,bet365 Geelong,2016-09-25 00:00:00.000,VIC,D,Y,Professional,Country,Provincial,Showers,Soft,11612469.89
5138444,23-SEP-16 Swan Hill,Swan Hill,2016-09-23 00:00:00.000,VIC,D,Y,Professional,Country,Provincial,Fine,Heavy,8200241.04
5138467,Moe Cup,Moe,2016-10-13 00:00:00.000,VIC,D,Y,Professional,Country,Provincial,Fine,Heavy,13991952.64
5138469,14-OCT-16 Donald,Donald,2016-10-14 00:00:00.000,VIC,D,Y,Professional,Country,Provincial,Fine,Good,8502338.76
5138474,16-OCT-16 Warrnambool,Warrnambool,2016-10-16 00:00:00.000,VIC,D,Y,Professional,Country,Provincial,Showers,Soft,12133539.91
5138476,17-OCT-16 bet36 Park Kyneton,Racing.com Park Synthetic,2016-10-17 00:00:00.000,VIC,D,Y,Professional,Country,Provincial,Showers,Synthetic,5128906.32
5138499,30-OCT-16 bet36 Park Kilmore,bet365 Park Kilmore,2016-10-30 00:00:00.000,VIC,D,Y,Professional,Country,Provincial,Fine,Good,6658431.55
5138501,31-OCT-16 Sportsbet-Ballarat,Sportsbet-Ballarat,2016-10-31 00:00:00.000,VIC,D,Y,Professional,Country,Provincial,Overcast,Good,10015818.59
5138508,bet36 Park Kyneton Cup,bet365 Park Kyneton,2016-11-02 00:00:00.000,VIC,D,Y,Professional,Country,Provincial,Fine,Good,14648425.84
5138510,03-NOV-16 Warrnambool,Warrnambool,2016-11-03 00:00:00.000,VIC,D,Y,Professional,Country,Provincial,Fine,Soft,5598119.92
5138533,19-NOV-16 Seymour,Seymour,2016-11-19 00:00:00.000,VIC,D,Y,Professional,Country,Provincial,Fine,Good,6428999.02
5138535,18-NOV-16 bet36 Park Kyneton,bet365 Park Kyneton,2016-11-18 00:00:00.000,VIC,D,Y,Professional,Country,Provincial,Fine,Good,6804973.50
5138542,29-NOV-16 Werribee,Werribee,2016-11-29 00:00:00.000,VIC,D,Y,Professional,Country,Provincial,Fine,Good,6928669.50
5138544,Sandown,Ladbrokes Park Hillside,2016-12-07 00:00:00.000,VIC,D,Y,Professional,Metro,Metro,Fine,Good,14085769.17
5138567,08-DEC-16 bet36 Park Kyneton,bet365 Park Kyneton,2016-12-08 00:00:00.000,VIC,D,Y,Professional,Country,Provincial,Raining,Heavy,8750023.83
5138569,09-DEC-16 Moe,Moe,2016-12-09 00:00:00.000,VIC,D,Y,Professional,Country,Provincial,Showers,Soft,6085280.82
5138574,Italian Plate Day,Tatura,2016-12-11 00:00:00.000,VIC,D,Y,Professional,Country,Provincial,Fine,Good,4480427.40
5138576,12-DEC-16 bet36 Park Kilmore,bet365 Park Kilmore,2016-12-12 00:00:00.000,VIC,D,Y,Professional,Country,Provincial,Fine,Good,6025916.51
5138578,30-NOV-16 Bendigo,Bendigo,2016-11-30 00:00:00.000,VIC,D,Y,Professional,Country,Provincial,Fine,Good,11143812.07
5138599,26-DEC-16 Kerang,Kerang,2016-12-26 00:00:00.000,VIC,D,N,Professional,Country,Other,Fine,Good,53913.00
5138601,Woodford Cup,Warrnambool,2016-12-27 00:00:00.000,VIC,D,Y,Professional,Country,Provincial,Overcast,Good,10822546.23
5138603,30-DEC-16 Bairnsdale,Bairnsdale,2016-12-30 00:00:00.000,VIC,D,Y,Professional,Country,Provincial,Showers,Good,6949786.97
5139805,Turf,bet365 Geelong,2016-08-17 00:00:00.000,VIC,D,Y,Professional,Country,Provincial,Showers,Soft,10765443.62
5139812,13-DEC-16 Bairnsdale,Bairnsdale,2016-12-13 00:00:00.000,VIC,D,Y,Professional,Country,Provincial,Hot,Good,6731519.86
5139814,NM,Cranbourne,2016-12-30 00:00:00.000,VIC,N,Y,Professional,Country,Provincial,Fine,Good,10510049.84
5139903,Underwood Stks- Caulfield,Caulfield,2016-09-24 00:00:00.000,VIC,D,Y,Professional,Metro,Metro,Fine,Good,65629579.54
5139905,21-NOV-16 Ballarat,Sportsbet-Ballarat,2016-11-21 00:00:00.000,VIC,D,Y,Professional,Country,Provincial,Fine,Good,7334914.74
5144251,30-SEP-16 Racing.com Park Synthetic,Racing.com Park Synthetic,2016-09-30 00:00:00.000,VIC,D,Y,Professional,Country,Provincial,Showers,Synthetic,12301063.77
5144258,07-OCT-16 bet365 Geelong Synthetic,bet365 Geelong Synthetic,2016-10-07 00:00:00.000,VIC,D,Y,Professional,Country,Provincial,Overcast,Synthetic,8153898.61
